<?xml version="1.0" encoding="UTF-8" standalone="no"?>
<svg
   xmlns:dc="http://purl.org/dc/elements/1.1/"
   xmlns:cc="http://creativecommons.org/ns#"
   xmlns:rdf="http://www.w3.org/1999/02/22-rdf-syntax-ns#"
   xmlns:svg="http://www.w3.org/2000/svg"
   xmlns="http://www.w3.org/2000/svg"
   xmlns:xlink="http://www.w3.org/1999/xlink"
   xmlns:sodipodi="http://sodipodi.sourceforge.net/DTD/sodipodi-0.dtd"
   xmlns:inkscape="http://www.inkscape.org/namespaces/inkscape"
   version="1.1"
   id="svg2"
   width="656.40002"
   height="348"
   viewBox="0 0 656.40002 348"
   sodipodi:docname="scratch.svg"
   inkscape:version="1.0.2 (1.0.2+r75+1)">
  <sodipodi:namedview
     pagecolor="#ffffff"
     bordercolor="#666666"
     borderopacity="1"
     objecttolerance="10"
     gridtolerance="10"
     guidetolerance="10"
     inkscape:pageopacity="0"
     inkscape:pageshadow="2"
     inkscape:window-width="1920"
     inkscape:window-height="1025"
     id="namedview8"
     showgrid="false"
     inkscape:zoom="1.2020109"
     inkscape:cx="313.13961"
     inkscape:cy="167.02998"
     inkscape:window-x="0"
     inkscape:window-y="27"
     inkscape:window-maximized="1"
     inkscape:current-layer="svg2"
     inkscape:document-rotation="0" />
  <metadata
     id="metadata8">
    <rdf:RDF>
      <cc:Work
         rdf:about="">
        <dc:format>image/svg+xml</dc:format>
        <dc:type
           rdf:resource="http://purl.org/dc/dcmitype/StillImage" />
        <dc:title />
      </cc:Work>
    </rdf:RDF>
  </metadata>
  <defs
     id="defs6" />
  <g
     id="g10">
    <image
       width="656.40002"
       height="348"
       preserveAspectRatio="none"
       xlink:href="data:image/jpeg;base64,/9j/4AAQSkZJRgABAQEAoACgAAD/2wBDAAgGBgcGBQgHBwcJCQgKDBQNDAsLDBkSEw8UHRofHh0a HBwgJC4nICIsIxwcKDcpLDAxNDQ0Hyc5PTgyPC4zNDL/2wBDAQkJCQwLDBgNDRgyIRwhMjIyMjIy MjIyMjIyMjIyMjIyMjIyMjIyMjIyMjIyMjIyMjIyMjIyMjIyMjIyMjIyMjL/wAARCAJEBEYDASIA AhEBAxEB/8QAHAABAAIDAQEBAAAAAAAAAAAAAAYHAwQFAgEI/8QAYBAAAQMDAQMEDAsCCwYEAwYH AQACAwQFEQYHEiETFDFBFSI3UVVhdZGVs9HUFhcyOFNWcXaBlMSh0ggjJDQ1NkJScrGyJTNic4S0 dIKiwRiSkyZDSFRjZGWDhqTT4fH/xAAYAQEBAQEBAAAAAAAAAAAAAAAAAQIDBP/EACoRAQEAAQMD AgQHAQAAAAAAAAABEQISUQMhMUHRYXGRoQQTFDJCweHw/9oADAMBAAIRAxEAPwC/0REBERAREQER EBERAREQEREBERAREQEREBERAREQEREBERAREQEREBERAREQEREBERAREQEREBERAREQEREBERAR EQEREBERAREQEREBERAREQEREBERAREQEREBERAREQEREBERAREQEREBERAREQEREBERAREQEREB ERAREQEREBERAREQEREBERAREQEREBERAREQEREBERAREQEREBERAREQEREBERAREQEREBERAREQ EREBERAREQEREBERAREQEREBERAREQEREBERAREQEREBERAREQEREBERAREQEREBERAREQEREBER AREQEREBERAREQEREBERAREQEREBERAREQEREBERAREQEREBERAREQEREBERAREQEREBERAREQER EBERAREQEREBERAREQEREBERAREQEREBERAREQEREBERAREQEREBERAREQEREBERAREQEREBERAR EQEREBERAREQEREBERAREQEREBERAREQEREBERAREQEREBERAREQEREBERAREQEREBERAREQEREB ERAREQEREBERAREQEREBERAREQEREBERAREQEREBERAREQEREBERAREQEREBERAREQEREBERAREQ EREBERAREQEREBERAREQEREBERAREQEREBERAREQEREBERAREQEREBERAREQEREBERAREQEREBER AREQEREBERAREQEREBERAREQEREBERAREQEREBERAREQEREBERAREQEREBERAREQEREBERAREQER EBFz7zXPtlkuFfHEZn0tNJO2MdLy1pcB+OML8/6Ep75tUrbjW3HXdfQ1cDv4ujpJXMLQR8sNBADA eHDiesjgSH6QRVfs/s20LT2oaygv1wdc7AC4QVU8wdKTwLXAElwBHAtJOD0d8+tt2qptO6LZS0NT LBcblO2KJ8Ly2RrGkOe5pHH+63/zoLORUrslu97tWtL5ozUtwqKysiY2ogfPM6TGAC4AuOeLXsOO jtSsFDdbtpP+EHLaLjdK2a13UONLHU1DnsYJO2ZutJwMPaYwgvFFU+3TVNXY9LUVBbaqenrrjU4D 4Hlr+TZxdulvEZcWD7CVCtrNRf8ASWm9GUMd8ucdYaWbncrKuQOlk/iy7ednLsFzgM9AQfo1FU21 3X12sNbbdMab7W8XLB5XALmNc7cYGZ4bznAjJ6MePI5rtkuuxQGqbtIuJum5vclyswjLsfJ39/OM 9e7+CC60VT7IdfXPUMlx09qIg3m2knlN0Nc9gduuDgOG812ASOnI6+Js+rnNLRVFQ2MyOijc8Mb0 uIGcD7UGyi/NWh5L5tXvVwmueuK63VEOHw0VHI6Pgc9sxoIAa3gOsnPEjpNhaHsW0TTeqqmiutzd dtO5cGVNTPvSk7oLXNBJcOPalpOOkjqJC00UP0btBtWtaq401DTV1LUW8tbNFWMYx3EuHANc7oLS D+C+s2hWqbaA/RsVLXS3GMb0kzI2GFg3N/i7ez0EDo6ThBL0Vc3XbJpq2XSpoYae53B1I9zKqWip t+OAg4O8SRwyDxGRwK3a3adYYdFjVNHzm4UHK8iW0zByjH4JIe1xG6Bjj4iCMgoJyiprY/tOrtSP ktN7NZV3KaeSSKqbTsbBHEGNIYSMHOQ7qPSOK7Vy23aUt9wnpYGXG4tpzieoooA+KPjgkuLhkZ6x kd7KCy0UYZrazT6Mm1TSTSVNugidK8RNHKDd6WlpIw4d4keZRWfbto+G20dY7n7n1ILm0zYWmSNo cW5f226OLScZJxg4QWiirm77adG2ijoqg1c9bzyMSsjpIw5zGkkZfkgNIIIxnPDoUysd7t+o7RBd bXUcvRzg8m/dLegkEEEAggghB1EUY19qpujdH1t3DBJOwCOnjPQ6V3BufEOk+IFVbp3R2vdeWqPU F11vX2tlX/GU9PT7+Nz+y7da9jWjrGMkjHFBfKKiLFqjVOgNo1Lo/VNykutBXOa2mq3kveN8lrHB x7bG92rmknHEg8ONi2PaJab7rG46Yhpa+nuNAJDJzmNjWP3HBp3SHEnOQRwGRxQTJFDr7tCtNh1f btMT01dPcbhyfJimja5jA95aC4lwI6CTgHAGVp6j2r6e03eBaHtrrjcm/wC8prfAJHR8M8ckDOOo EkdaCeooxpHXNl1rb5auzzSOdCQJqeRobLGT0ZGcYODggkcDx4FRSHbxo+W2SV7xcIQyURCCSJnK vOM5aGvI3R0EkjiQgtJFC9P7R7RqHVtfpuGmr6a4UQe54qY2Na8NcGndIcSekEcBkcV7vm0O02PV 9v0xLS11Rca8MMfNo2OYwPcWjeJcCOgk4BwOKCWtkY5xaHAuHSAeKyKpdDTaOfta1Kyy093ZfRzr nj6ks5B38e3f3MEn5eMZHRlda/bYdM2K8TWprLhcqyn3hO2ghEgjLflAkuHRjjjOOvrQWIig52pa ddouo1VTOqaqhpnNZPFCxvLROc4NG81zgBxI6/sytm6bQbNaND0urZ21L6CpZE6OKMNMpL+huC4D I4549R6UEvRRGg1/Z7joObV8TalluhZI98T2t5UbhI3cBxGTgY49Y6F0tLakpNW6epr1QwVEVNUF 3JtqWta/tXFpOGkjpB60HcREQEREBERAREQEREBERAREQEREBERAREQEREBERAREQEREBERAREQE REBERAREQEREBERAREQEREBERAREQEREBERAREQEREBERAREQEREBERAREQEREBERAREQEREBERA REQEREBERAREQEREBERAREQEREBERAREQaF1uVFaLXUV1wlEVJAzeleWlwa3oyQAT+xVBHss0Bru CS96QulTRASubmmzuMkHH/dvAc3pBABAxjAVy1NNBXUs1NUwslgmY6OSN4y17SMEEdYIVV1ewOzx 1j6mxXu6WgycDHFJvtA7wPB2PtJQR3Qd/wBU6a2t/AW63l11oiZI957+ULcRmRrg45c04bgtJwMn vArn7Qb1Wah200lPa7VNeY7BunmcLuEj2uDnkkA4G8WtPD+x41aWidlti0XVuuMLqitubwRzupIJ aD07oHAZ6zxPE8cFZtG7OKDR93ud2ZXVNfXXH/eTVAbvDLi52MD+0SCf8IQUxqjVF8otpVj1rdNL 1VjbEWQSiQl4maC4Pwd1vbbjiPwCm23a1yC12XWdsLec2uoYTK0AjccQ5jiesB4GP8ZVha10fQa4 sHYmvkliYJWzRyxY3mObkZGeHEEj8V9Ok6WXQfwUqp5amm5pzTlngb+AMNd3t5uBjxgIKlFZDtQ2 6WiWnPKWm1UcVWePAndEnR3997Gkf8JWP+Ex/ONNf4Kn/OJWXoHZvbdACuNDU1FVJWbgfJOG5aG5 wBgf8Rz+HeTX+zWg2gOoHV1dU0pohIGcgGne393Ocj/hCCuNrEnYHbXpa/VbHdjwyDelIyBuSu38 eNrXNd+KvQ11I238/NVCKMR8ry/KDk9zGd7e6MY45XL1PpOz6vtbrdeKflYs70b2ndfE7HymnqP7 D1gquv8A4eLJnkjf7xzLp5vvM+V387uP/Sg4WxzN52u6s1DSNd2Pk5cteQRnlZw9gP4NcfwV7V9d TW6gnrauURU0EZklkIJDWgZJOPEudprTNp0naWW2zU3IQA5eScvkdgAucesnHswF1J4IqqCSCaJs sMjSx8b2gtc0jBBB6QQgpuPZps82hCe8aTuM9G9kxDzSAtYyTpzybwHNHe3d0d7oXI0fetU6O2uQ 6IuN6ddqB7zH27+ULQWF7HDJLmEcMtzjBPTwKlFdsGs/P31tivNzsr3niyB+81o7zTwcB9pK7ejN lFi0dcjc2SVFfcyCBU1JB3M8HboHQT3zk9PHiUELuHI7ONvzbpKRBaL7TvMr8Ya154uH28o1h/8A 5i2dh9vkudXqLXFezdnuVS+KIk/JaXb8mD3slo8W4Vxts+p7TrCW36YsMM1fe6e4PjcWROHJkZY5 gyBnLsHI4dpnKubSmn4dM6SttjbuPbTQBkhA7V7zxe7B6i4uP4oKetujddaBq7lWaGrrfe7XLJh9 MZA5x3eOHNJA3gDjtXZPe6AunpXVVr1Nsm1maSw0FnrKa3TiqjoYgyOXegfuv4AdYeMEkjHTxXaq Ni9vjqJ3WXUV7s9LUyl89JSVG7EQf7LQAMDvZ3lKtMaHsmk7BNZaCGSWmqC41BqCHPm3huneIAGM cMAAftQVdsfdUN2GarNITzlstYYt3p3+bR7v7Vwtj9HrSq0zcfgvNp6OnfVFlS24MeZHHcbgdq0g swTgHr3la2kNlVr0Zd3V1sut2cx29vUkkzeRfkEDeaGjJAPAlcyp2H2XslPVWi73azxVORUU9HMG scw9LRwyBnqOR4kEYs2kblpDZFrSkrLlba2nqKbloTQ1DpGtO6Q4nLRjIDMYznHiXnRdot7v4ON+ qHU0bpZ4KqWR7mAkujB3OPi3QR3jlWXR7PbNbtD1mlLeZoKSrY5ss2Q6V7ndLicYJxgdGMAJadA0 No2f1OkIqyokpaiKaN07g3fAkzkjhjhlBV2zy0UDv4P2qqp9NFJNNFVve98YJzHFlgB6cNI3h3iS pL/B3lkl2d1THvLmxXKRjAf7I5ON2B+LifxUqsWz6hsWhK/SkFZUy01ayZj5nhu+0St3TjAxwC2d C6JpNB2Sa1UdVPUslqXVBfMAHAlrW44dXaDzoItt+oJq3ZvysTXOFHWx1EgAz2uHM4+LLwu/suvN FeNnVl5pM17qWkjpZ2AjMcjGhpDh1Zxkd8EHrUrqKaCupZqWpiZNTzMMckcjcte0jBBB6QQqrrNg Gn3VslRarrdLYJCd6KKQOaGnpa0kb2PtJQRnaZVw6l216XtNtcJ56SWJlQ+HtjG7ld5wJH91oye9 xW9r2NujNuWndVtwyjuJENS4uwAQOSeT4gxzD9rSp9ovZfp3RMr6mgZNPWvBaampcHPa0/2WgABo /DPjW7rjRVBruyR2yvllhEUwmjlixvNcAR18MEEoK12fxDWu2rUOrn/xlHbnGGkdk7pJBjYR1fIa 4kd94Ki+ho9VVO1DVRsE9oiu4lnM/ZEPPa8t225utJ+Vu56OpXpojRlBoaxOtdBLLM18rppJZcbz nEAdXDgAAuDqXZJab/qF1+o7hcLRc3cXzUTt0OdjG9jpDscCQRn7coOPs/0ZqCy7RLtfLtcrJK6u ikbU09umfkSFzXbxYWDHQevPbHvqKfwbrfSVFbqCsmgjfUU7KeOKRzclgfym9j7dxvmVt6O2f2jR Zq5KF1TUVtY7eqKyreHyv68ZAGBkk98npJwFraA2b0Oz43DmNdU1XPeS3+XDRu7m/jGB/wAZ8yCB a7j+Be3PT2qG4ZSXNwhqCTgA4ETyfEGOY77Wr7s9jGtds2otYPG9SUDjBSO44JI5NhHV8hriR33h WTrjRNDruyxWyunmgbFOJ2Sw43g4AjHEdBDj+xZNEaNoND2E2qgklma+Z00ksuN57jgccd4AD8EF SbL8/wDxA623cb2K/Ge/zpij2xyHWNRV3yTTNRaI6r+K50+6CQvdkvxuloJ6Qd7PXhXVpzZxQac1 vddU09bUy1Ny5blIZA3cZykgkOMDPAtwuZedjdpr9QzXu13W52WsncXTGhl3Q4uOXEdYLuvjjxII zpnZpeqe3a0pbhXWWpF4p3gQ2+RzhFUBziztS0BoDieHTwwoTp26DWFl0HojIkEF0mkq43cSYmnf H4bj5R/5Vf2jtD2jRFBNTWwTSSVD+UnqKhwdLIerJAHAccDHWe+VxtObJ7NprWVRqSmqaiSaQymO B4buRb5yd3AzwBIHiKCmr7dDpfS+s9BhhaX3qM0sY6TC4l/Ad7EUf/zr9H6YtDbDpa12luM0lLHE 4jrcGjeP4nJ/FRS+bJrPf9cQapnqqmOojkhkfA0NLJTHjGcjPENAP2Kw0BERAREQEREBERAREQER EBERAREQEREBERAREQEREBERAREQEREBERAREQEREBERAREQEREBERAREQEREBERAREQEREBERAR EQEREBERAREQEREBERAREQEREBERAREQEREBERAREQEREBERAREQEREBERAREQEREBERAREQEREB ERAREQEREBERAREQc6Cz2ylrpa6nt1LFVyZD52QNbI7JJ4uAyeJJ/FdFEQEREBERAREQEREBERAR EQEREBERAREQEREBERAREQEREBERAREQEREBERAREQEREBERAREQEREBERAREQEREBERAREQEREB ERAREQEREBERAREQEREBERAREQEREBERAREQEREBERAREQEREBERAREQEREBERAREQEREBERAREQ EREBERAREQEREBERAREQEREBERAREQEREBERAREQEREBERAREQEREBERAREQEREBERAREQEREBER AREQEREBERAREQEREBERAREQEREBERAREQEREBERAREQEREBERAREQEREBERAREQEREBERAREQER EBERAREQEREBERAREQEREBERAREQEREBERAREQEREBERAREQEREBERAREQEREBERAREQEREBERAR EQEREBERAREQEREBERAREQEREBERAREQEREBERAREQEREBERAREQEREBERAREQEREBERAREQEREB ERAREQEREBERAREQEREBERAREQEREBERAREQEREBERAREQEREBERAREQEREBERAREQEREBERAREQ EREBERAREQEREBERAREQEREBERAREQEREBERAREQEREBERAREQEREBERAREQEREBERAREQEREBER AREQEREBERAREQEREBERAREQEREBERAREQEREBERAREQEREBERAREQEREBERARYZZWQxvlkeGRsa XOcTgADpJVaW/V+vdX0wuWlrHaKO0PLhBPdpnufUAOLd4NjILOg8DnxEoLRRV3ym2L6HRXnqfanK bYvodFeep9qCxEVd8pti+h0V56n2pym2L6HRXnqfagsRFXfKbYvodFeep9qcpti+h0V56n2oLERV 3ym2L6HRXnqfanKbYvodFeep9qCxEVXXDV+vdIUxuWqbHaKy0MLRPPaZntfTguDd4tkJL+kcBjxk Ky4pWTRsljeHxvaHNcDkEHoIQZkREBERAREQEREBERAREQEXD1Bqiy6VoxV3m4RUkTs8mHZLpCOp rRku6R0Dgoo3aVdLqAdL6HvFyjPyaiqLaOF477XPzkeZBY6Ku+yW1asbvQWDT1vzxDKyrfMWjvHk +BP2JubYDxEmi256v5Tw/YgsRFXbaja3BxlodJVTQMbsMs7HE9/LuC+HW+s7bg3nZ3WmAdMtsrGV Tj9kY4+coLFRRHTu0TTmpqrmFJVvp7k35VDVxmKYEDJG6eDiADkNJwpcgIiICIiAiIgIiICIiAiI gIq+vGs7/V6orNOaPtFNV1dE2N1ZW10xbBTl4y1pa3tnEjvHgc8OBXjlNsX0OivPU+1BYiKu+U2x fQ6K89T7U5TbF9Dorz1PtQWIirvlNsX0OivPU+1OU2xfQ6K89T7UFiIq75TbF9Dorz1PtTlNsX0O ivPU+1BYiKu+U2xfQ6K89T7V4dW7XKRvLy2vStbGw5dTUks0csg7zXPO6D9qCx0Ud0dqiDWGnobt BC6BznOjmp3uy6GRpwWu8fQegcCFIkBERAREQEREBERAREQEREBERAREQEREBERAREQEREBERARE QEREBERAREQEREBERAREQEREBERAREQEREBERAREQEREBERAREQEREBERAREQEREBERAREQEREBE RAREQEREBERARYpZY4YnSyvaxjRlznHAA8ZXE+HekPrXY/SMP7yBrvue6l8lVXqnLDs9wNnWnABg djYD/wCgLj6y1jpeq0PqCmp9SWeaaW3VDI446+JznuMTgAAHZJJ4YXjROsdMUmhLBT1OpLRDPFb4 GSRSV0TXMcGAEEF2QR3kFgoo/wDDvSH1rsfpGH95Ph3pD612P0jD+8gkCKP/AA70h9a7H6Rh/eT4 d6Q+tdj9Iw/vIJAij/w70h9a7H6Rh/eT4d6Q+tdj9Iw/vIJAixRSxzRNlie17HDLXNOQR4isqCOa 9a1+z3UocAR2LqTxHWInEL5s/JOzvTeeP+zKf1bVk133PdS+Sqr1Tlj2f9zrTfkyn9W1BJEREBER AREQEREBERARc6tvlqtwPPrnR0uASeXnYzAHT0lcx+vtHN4HVVl/CvjP+TkFX3S/Utp24X+53qyV NzoLfFSxR1UcXK9jQ6Nr97d6gXFx3ukdXThWjZ9eaVvzWdjb9QTPeMtidKGSf/I7Dv2KD6V1Tp9u 1jW1W6+2xtPVihbTyvqo2tmLYsODCT22DwOOtS6s0hojVIfNNabTWuk4ungDQ93jL2YP7UErBDgC CCD0EL0q8GxrSUBJoGXG38cg0tfK3B6zxJ6uC+O2TUO9/F6o1ZFET20LLodx/wBuW549HSgsRcq5 6is1maHXO7UNGP8A9eoawn7ATxUROx/TszS2srb1WRkY3Ki4yObg9PRjpW/btlOhrYSYNN0byenn O9P+yQuCCtNq2tbDqaxum0/bqiuqbfNG/s5HA6NlEQ8cBIQCSSQMdHEEZICvqEl0EbnHLi0Enx4U A2yQx0+x29QwxsjjYKcNYxoDQOXj4ABT+D+bxf4B/kgyoiICIiAiIgIiICIiAiIgrnZY0Gs1xJu9 udTVbS7rIBGB+GSrGVd7K/5xrj70Vn+bVYiAiIgIiICIiAiIgrvZXwn1uBwA1PWYH4tViKu9lf8A ONcfeis/zarEQEREBERAREQEREBERAREQEREBERAREQEREBERAREQEREBERAREQEREBERAREQERE BERAREQEREBERAREQEREBERAREQEREBERAREQEREBERAREQEREBERAREQEREBERAREQEREFX6ut8 Or9q1n0tc2ufaKW2yXOaASOaKh5eY2h26R8nGQfGR1qVDZ7o0AD4LWfh36Nh/wDZcGT5xEP3X/Ul WIgjfxfaN+qtm/JR+xPi+0b9VbN+Sj9ikiII38X2jfqrZvyUfsT4vtG/VWzfko/YpIiCN/F9o36q 2b8lH7E+L7Rv1Vs35KP2KSIgjfxfaN+qtm/JR+xeTs90aQR8FrPx71Gwf+ykyIKu0nb4dG7Vrppa 2hzLRXW1lzggMjnCne1/JuA3iflHJJ8QHUrRVdyfOIh+6/6kqxEEf133PdS+Sqr1Tlj2f9zrTfky n9W1ZNd9z3Uvkqq9U5Y9n/c6035Mp/VtQSRERAREQEREBERBCtcaquFlqbRZbHSwTXy8SujpjUEt hiawAue/HE4B4AePpxg8tmzOvvDRLq/V13uMrv8AeUtLLzam/wAO40cft4ZWjtLslPqPaRoe1VUs 8UUza48pTv3JGObG17XNd1EOaD+C347NtM060R22/Wy/Ujfksu0To5mgdQew9scf2nH8EHSodk2h aAYi05SvzxJnc+b/AFk95dNugtHtGBpWyfjQRH/Nqj/ww13SktrtnMrxxxJSXOKQOP8AhxkD7Udt KuMI3p9n2qgwnH8VSiQ5+wHo8aDvSbP9HSgh2lrMMjHa0Ubf8guPV7HdD1MnLMsxpJ/7MtJUSRFv jADt0eZYhtEvMzRzbZ5qJzncWcsxkQx4yT2vBeRqbaPcN5lDoWkt4Odye43Jr2jvEsYA78P2oNaq 0nrDScD6zS+qai5QQtL326+OEokAGcNl4FviHAd8qXaQ1HBqzS1Fe4InRCpad6JxyWOaS1wz18Qc HrGFFJdD6s1QNzWOqWx0Lj/GWyzRmKN47zpHds5p62kHxELNsO7klo/xz+uegsRERBX223uRX3/p /XxqeQfzeL/AP8lA9tvcivv/AE/r41PIP5vF/gH+SDKiIgIiICIiAiIgIiICIiCu9lf841x96Kz/ ADarEVd7K/5xrj70Vn+bVYiDHK4sie4dIaSFA9Ia+luez6qv18hZBV0EbpaqKFpaHNLBLGWgkntm PZjjxOVPJWkwvaOktIHmVZ0ehbrG3TNK7kmUXMqWG9x74OXUvbxBuPlZeS13/CAg6undcyv0lbq7 UUD2XarqZ6UUdFTve58kcj2lrWjJ4BhJJOBg8VuDaLp8wcuJaox9kha882eHc4LN/d3Mb2eG7jGd 7hhR6qtlZpyex3eeShZNS3S4gU9RViFszKqV7m7ryC3fADSGnGeIzlammLZXXyWS6Mjpnwt1fJXO dG7MZjZTuiLmEgb+HnG9gZLSUEpO0exMiqJZm18XNJhFWNko5AaTPQ6XhhrTkYOeIOegHG3aNUuu 2rL5ZOxtTCLWY2mofjdeXN3u/wAMggjvjpx0Lk3nS9xrLFrmmghjM94l3qTLwN8c3iYMnq7Zrun/ AN10bNaK+2a61FWPgaaC5Cnlima8ZY6OIRljm9PVkHoQSxERBXeyv+ca4+9FZ/m1WIq72V/zjXH3 orP82qxEBERAREQEREBERAREQEREBERAREQEREBERAREQEREBERAREQEREBERAREQEREBERAREQE REBERAREQEREBERAREQEREBERAREQEREBERAREQEREBERAREQEREBERAREQFhllZDG+WR4ZGxpc5 xOAAOklZlH9d9z3Uvkqq9U5BDrfq/Xur6YXLS1jtFHaHlwgnu0z3PqAHFu8GxkFnQeBz4iVu8pti +h0V56n2rvbPcDZ1pwAYHY2A/wDoCkyCoXae2pO1k3VBGk+fNoOYCPfqOT5Pf3846d7J7+MdS7XK bYvodFeep9qsREFd8pti+h0V56n2pym2L6HRXnqfarERBXfKbYvodFeep9qcpti+h0V56n2qxEQV 3ym2L6HRXnqfatK4av17pCmNy1TY7RWWhhaJ57TM9r6cFwbvFshJf0jgMeMhWio5r1rX7PdShwBH YupPEdYicQg7sUrJo2SxvD43tDmuByCD0ELMo3s/JOzvTeeP+zKf1bVJEFdyfOIh+6/6kqxFXcnz iIfuv+pKsRBH9d9z3Uvkqq9U5Y9n/c6035Mp/VtWTXfc91L5KqvVOWPZ/wBzrTfkyn9W1BJEREBE RAXH1FqC36ZstVdrm9zKWnaC4sbvOcSQA1o6ySQP88Diuwq522QNqdnMsLjuh9ZTt3h0jMgGf2oM UddtL1Y1s9FBQaVtsnGN9WznFWW9R3CN0Z/uuAI8azfFpc60b942galnlPTzKdtKwn/AAQsUNdtJ 0s3m9fa6bVNEzg2rpJhBUbo63sdwcfE38SVlG160UwPZqzagswA4urbc4N/Atz/l1IDtjWl5ZWTV U13q52Z3JZrg8vaD1AjGAvfxO6YHGKS7RPHyXsuMu8098ZK+x7atn8haPhAAXHHbUk4x9p3ML3Jt m2fwvLHahaXD+5SzOHnDMIMJ2Wy07t+2a31VSOz2rX13Kxj/AMpHH8SsbqTajp7+Mp7lbNUU7eLo qiEUk5HeYWnd/FxKyHbLpmoB7E014vDh/ZoLe9xzw/vbvfWKTU20DUAEVh0k2zwvH8+vUoDmj/kt 7YH7cjvoJJpHVtJq2hlmjgmpK2lkMFbRVAxJTyDqPfHeP+RyFJVU2yu2VVn15ruhrq91dVtfRPmq nM3TI97JHk46hl2AO8FbKAq72HdyS0f45/XPViKu9h3cktH+Of1z0FiIiIK+229yK+/9P6+NTyD+ bxf4B/koHtt7kV9/6f18ankH83i/wD/JBlREQEREBERAREQEREBERBXeyv8AnGuPvRWf5tViKu9l f841x96Kz/NqsRBE59fWKnkqHOfXOpaaUwz1rKGZ1PE8EhwMgbu4BGCRwHWVJ45GSxtkY4OY4Atc 05BB6CFUdVeLbYLRdLnpbV8NK2OWeV9guUbHN5fJ3omxndljLnA4aCRkkgYWvqebspqepffn0Vsi Fqpp6CO43CSA07nB/KOjDO1MrXYBPEjDcdKC3a6gpbnRvpK6lgqqaTG/DPGJGOwcjLTwPEArJS0t PRUsdNSQRU8EYwyKJgY1o7wA4BVjbLBTXnV1i7MyC5vg05E8ylz92ocJRuyOzguPEntutxKxWFs9 fd7PomUueNMVMs9UZR8uOLAoujhxbIx32xFBbaKidJslnrbDWvu9vptQS1+7XtNfNJV1G6SJYZIu IAA4gcGtwD0Hj1Rp61yaH1BWVdyFDNcLtUwurJy8xsYK1wETt0jdjc5vbEFvyySUFwooBs7qaVtT e7fTUNPTy0r4TJJb659TSS7zCQY975BAGHNA/unjkKfoK72V/wA41x96Kz/NqsRV3sr/AJxrj70V n+bVYiAiIgIiICIiAiIgIiICIiAiIgIiICIiAiIgIiICIiAiIgIiICIiAiIgIiICIiAiIgIiICIi AiIgIiICIiAiIgIiICIiAiIgIiICIiAiIgIiICIiAiIgIiICIiAiIgLFLLHDE6WV7WMaMuc44AHj Kyqr9XW+HV+1az6WubXPtFLbZLnNAJHNFQ8vMbQ7dI+TjIPjI60Ew+HekPrXY/SMP7y4OstY6Xqt D6gpqfUlnmmlt1QyOOOvic57jE4AAB2SSeGF2Bs90aAB8FrPw79Gw/8AsvXxfaN+qtm/JR+xBwtE 6x0xSaEsFPU6ktEM8VvgZJFJXRNcxwYAQQXZBHeUh+HekPrXY/SMP7yx/F9o36q2b8lH7E+L7Rv1 Vs35KP2IMnw70h9a7H6Rh/eT4d6Q+tdj9Iw/vLH8X2jfqrZvyUfsT4vtG/VWzfko/YgyfDvSH1rs fpGH95Ph3pD612P0jD+8sfxfaN+qtm/JR+xPi+0b9VbN+Sj9iDJ8O9IfWux+kYf3l24pY5omyxPa 9jhlrmnII8RUeOz3RpBHwWs/HvUbB/7KKaTt8Ojdq100tbQ5lorray5wQGRzhTva/k3AbxPyjkk+ IDqQWio/rvue6l8lVXqnKQKP677nupfJVV6pyDHs/wC51pvyZT+rapIo3s/7nWm/JlP6tqkiCu5P nEQ/df8AUlWIq7k+cRD91/1JViII/rvue6l8lVXqnLHs/wC51pvyZT+rasmu+57qXyVVeqcsez/u dab8mU/q2oJIiIgIiICr/bJ/UP8A6+l9a1WAq/2yf1D/AOvpfWtQWAiIgwvp4ZQ4SQseHdO80HK8 x0dLC3djp4WN6cNYAFsIgIiIK70Z3W9o3+O3+perEVd6M7re0b/Hb/UvViICrvYd3JLR/jn9c9WI q72HdyS0f45/XPQWIi8khoySAB1lcO56x01ZweyF+t1O4cdx9Q3fP2NByfMgjm23uRX3/p/XxqeQ fzeL/AP8lUmp9Rv2p2qbTOkrfU1FFVvj5zeKiJ0dPExr2uO7vYLnZaBjAP8AmLdY0MY1o6GjCD2i IgIiICIiAiIgIiICIiCu9lf841x96Kz/ADarEVd7K/5xrj70Vn+bVYiDVdRUjqnnLqWE1AwOVLBv cOjj0r1PTQVLWtnhjla1wc0SNDgCOgjPWthEGPk2cpym43fxjexxx3sry2GNsj5GxtD343nAcTjo yetZkQa4poOcmoEEYnLd0y7g3iO9npwvXIxcm6Pk2cm7JLd0YOenIWZEGCnpoKSIQ00EcMY6GRsD Wj8As6IgrvZX/ONcfeis/wA2qxFXeyv+ca4+9FZ/m1WIgIiICIiAiIgIiICIiAiIgIiICIiAiIgI iICIiAiIgIiICIiAiIgIiICIiAiIgIiICIiAiIgIiICIiAiIgIiICIiAiIgIiICIiAiIgIiICIiA iIgIiICIiAiIgIiICruT5xEP3X/UlWIq7k+cRD91/wBSUFiIiICIiAiLEZWCRsZe0PcCQ3PEgdPB BlREQFXcnziIfuv+pKsRV3J84iH7r/qSgsRR/Xfc91L5KqvVOUgUf133PdS+Sqr1TkGPZ/3OtN+T Kf1bVJFG9n/c6035Mp/VtUkQV3J84iH7r/qSrEVRamdqNu3OA6ZbbHV/wcG+LlynJ8nzh2cbnHez u+LpXZ5TbF9Dorz1PtQSHXrms2e6lLiAOxdSOJ6zE4BfNn4I2d6bzw/2ZT+raojcNJa+1nAbdqm8 We32hxby9PaYXvfUAODsF0nFnQOIP2gqzIomQxsijYGRsaGtaBgADoAQZkREBERAVf7ZP6h/9fS+ tarAVf7ZP6h/9fS+tagsBERAREQEREFd6M7re0b/AB2/1L1YirvRndb2jf47f6l6sRAVGbLdm+n9 Q7Pbdc641/OJXSh3I1j428JHNHag4HABXbLMyCJ8sr2sjY0uc5xwGgdJJUC2Igt2S2fIxl05Gesc s9B9+JbRMrg6poKqqI6OWrpjgd7g4LsW3Z1o+1bjqPTlvD2Y3XyQiVw8Yc/Jz41KkQeGtaxoa0AA DAAHAL2iICIiAiIgIiICIiAiIgIiIK52WOArNcR73bjU1W4t6wCRg/jgqxlX140bqCk1RW6l0dda Wlq61sYrKGthLoKgsGGuLh2zTjvDpzx4leOU2xfQ6K89T7UFiIq75TbF9Dorz1PtTlNsX0OivPU+ 1BYiKu+U2xfQ6K89T7Vp3G6bWLbSsnqKfR5Y+ohgAZzknellbG3+10bzxnxZQWgirvlNsX0OivPU +1OU2xfQ6K89T7UFiIq75TbF9Dorz1PtXl9Ptcrm83lrdK22N5w6ppY5pJWD/ha/LSftQetlfGfW 5HEHU9Zg/i1WIo7o7S8Gj9PQ2mCZ07mudJNUPbh00jjkud4+gdJ4AKRICIiAiIgIiICIiAiIgIiI CIiAiIgIiICIiAiIgIiICIiAiIgIiICIiAiIgIiICIiAiIgIiICIiAiIgIiICIiAiIgIiICIiAiI gIiICIiAiIgIiICIiAiIgIiICIiAq7k+cRD91/1JViKu5PnEQ/df9SUFiIiIItYv6+6t/wCj9UVr 1d1vly1VcbPY6mhpG2ymgllfV0r5jLJLvlrBh7cNwzieJyfEs9dowVN6q7rS3+826arEYmjo5Igx 24N1pw+Nxzjxr3VaPhqZo6hl3u1PV82ZS1FTBO1r6qNu9gSdru72XOO80NcMnBCDiWfWF41XUWqK 1czohLaY7lVOqIXSgue9zBE0B7SBlj+249XBci26zuNzobLdamkoRWS267T73JBzojDKGta13Tuk Ab2PlYC62otO1FrntM2nrHXVDKSkNF/IbmKd/JAdpG8P+UzP9oOD2niFk03s8gotNWilr5JI6qlo aqmeyncAxnOXb8jRkEndPBpz1ccoPNn1LqCap0nUVz6CSk1BADyMMDmvgdyBmB3y4h2QDkboxwx3 zYK4FPpWhpodPxNlqCLEzcpS5zcvHImHt+HHtXE8McfFwXfQFXcnziIfuv8AqSrEVdyfOIh+6/6k oLEUf133PdS+Sqr1TlIFH9d9z3Uvkqq9U5Bj2f8Ac6035Mp/VtUkVfaJ1jpik0JYKep1JaIZ4rfA ySKSuia5jgwAgguyCO8u87XmkGtLjqqyYAzwuERPmDkEek+cRD91/wBSVYiq7Sdwh1ltWumqbaXP tFDbWWyCcxuaKh7n8o4jeA+Scgjxg9atFAREQEREBERAVf7ZP6h/9fS+tarAVf7ZP6h/9fS+tags BERAREQEREFM0l7vlo2sa6bZNMy3ySZ9FygbVMgbFuwnGS4Hpycf4VIuzG1K48KXS1ltOeh1wrzP j/6S+aM7rW0b/Hb/AFL1YqCtzs9v2oj/APbXVc1ZSEgutluj5vAf+Fzh2z2/bg+NT6ioqa3UUNHR wRwU0LAyOKMYa1o6AAtpVVoK8XOkpobfeq2eqpryyee31UryXMka5wkgLunoG+3xbw6kFqoqXbc6 d7dEi/XG8ikn0+ZpOZzVRfLN/FYc7ke2PAu4nhxUgrGPq9HZ0dLeqiBtwjNbHLPUR1UkIxyjIn1B DmnBaeBA4OAIJQWQigmkam2uv9TBRXG+wy82D32a78qXM7bHKsdNl2P7J3XFvH7F71zFdHV9plip 7pV2SIy8/p7TOYpy4gcm7tXNc9o7bLWkHiDx6EE4RVRV3qoodIV02mL5VzGK500DoLtHIZ6LfkYD GTJh5B3h8rPAkA96QVep9QCpukdtttvqm2aNnPXyVD4+XlMYkcyIBrt3AcOLieJAx0lBN0UKodW3 K86lpaS1UNM+2S26muMlTNI4OYyUv7UAA5cQ0YzgDDsnoC0Ldr+sk1PRW2vZaN2tqpaUQ0ddy89K 9jXOHK4G7k7uCARjI6eOAsRFXY17dpbVRXqK10ptVwuUdFTP5dzpBG6bk+Ve3dAw4AkYPDLenJxo XTa5FbrhXvLLXzCgrDRyxPuAbWSYeGPkZFu/Jac8M5cBnggtNF8BBGR0L6gIiICIiAiIgIiICj2s v6EpvKtt/wC9hUhUe1l/QlN5Vtv/AHsKCQoiICIiAiIgIiICIiAiIgIiICIiAiIgIiICIiAiIgIi ICIiAiIgIiICIiAiIgIiICIiAiIgIiICIiAiIgIiICIiAiIgIiICIiAiIgIiICIiAiIgIiICIiAi IgIiICIiAiIgIiICruT5xEP3X/UlWIq7k+cRD91/1JQWIuLqm5z2bSl2udMGGejpJZ4xICWlzWkj IBHDI767S4erLdUXbR95t1IwPqKqimhia44Bc5hA4no4lBHWa3rn6Kkr5KaGnvdHWU1HXUrwS2OR 80bHEDOd1zX7zTnrHTgrrXPW1ptdXWQTR18jKDHPqmGjkkipctDhvuA49q4E7ucA5OFxNaaNuVwq aSusnJNlmfTRXOFzt0SxRStlY8dW+wtIHfa8jqC83PT2oYotVWm2UNJU0moZJZGVc1YWGmMkLY3h 7dwkgFpLd3PTg4Qdy96yoLVLWUu5VyS0tMZ55oKZ8kVM0glpkcBgZxnhnABJwBlc+i19TUun7DLc I6ysudbbIK2eKhpHSljHMBdK4NGGtznx8MAFadRpq+2urv1LaKalq6S80ccTaioqdx1M+OEQ9s3d JeCACMHpyDjOVy36BuNMy0Vb7abi+KyUtvmpYrrLRujmiae2DmEBzOJB6xjIByQgmE2ubMzsfzXn dea6nNXCyipnyu5EdMjmgZAyQOPHJxjK7tBXRXKggrYeUEczA9okYWOAPUWniD4ioHVaQfS2WzUU OmmTNpKdzWGhuckM9HK45cGSvcHOj4npP9kdqRgCXaZprpRabt9NeKoVVyihDZ5ened9v9ogYBPW RnhlB2lXcnziIfuv+pKsRV3J84iH7r/qSgsRR/Xfc91L5KqvVOUgUc165rNnupS4gDsXUjiesxOA QR7RGidK1ehLDVVOnLVNPNb4HySSUjHOe4sBJJI4klSAbP8ARwORpWzfko/Ymz8EbO9N54f7Mp/V tUkQYooo4YmxRMaxjRhrWjAA8QWVEQEREBERAREQFxNTaeodU2Css1xa91PUNAyw4cwgghzT3wQD 3uo8F20QVnC3aZpJjYGxUOrqCPtY5HTc2q90D+2XZaft7Zx6SVsDag+kcI7torVNE8HtnsouWiB8 TweP4BWIiCu3batExcKquq6V54hk9DKD+xpQbbdCSENhuk80h6I46KYuP2dqrEUa0CS7Z/p+Rxy6 Sghkce+5zQSfOSg4B2r0s/C2aV1TcM/JfDbiGHvEkngD38LHJd9pmoByVtsFBp2Bwwaq4VAnlA77 WNGA4d5wIUv1TeX6e0vcrvHC2Z9HA6YRuOA4jqz1LBqvUD9O6WlvDKdkz43wN5NzsA8pKxh4+Lez +CDX0dpCLSdHVb1ZNcLjWy8vW10ww+Z/2dTRxwMnGSpQo7U6109R3Z9rqLpEysjfHG9ha7dY9/yG ufjdaT3icpW6105bbubXWXimhrG45Rj3HdizjG+/G6wnIwHEZzwQSJRKbQ9LNoqLTj6qUGB3K09Y 1oEkMoeXte3vEE48YyOtdEaqsz9QPsArd66MeGPp2xPJaTGJAScYA3SDnOM8M54L7WXp1Lqy2WYQ tcytpqicyl3FpjMYAx153/2INOz6RitFTZp2Vb5Da7Wba0FgHKNJjO+ePA/xY4eNb18tE12gg5pd Kq3VVPKJYpoDlpOCN17Dwe0g9B/Ahasupm0+sqmyVDYoaWntTbi+qfJuhoMjmEHPAABuc5X2j1rp +4sndTXJjhDC6ocDG9pdE3pkYCAXs/4m5CDBatL1sOoG3y83g3Gujp3U0LYqYQQxMc4OcQ3LiXEt HEu/BbN6styrq2nr7Xe6i2VUUboixzOXp5Wkg9vESBvDHBwIPEjJC1YNoGlqjkjFd4/46ATw/wAW 8cs044My3t35IBY3LgeBGVsy6y0/BYoL1Lc4m0FQ7chfuu3pH5ILGsxvF2QRugZ4Hgg5D9nwqaG7 msu0891uslPLNWthawNdAQYg2PoDQRxBJJyeKz1ujKuoqa6WC/1FL2UiZHc2xwMIlLWBhfHvZ5Nx aMH5Qx1ZAKkFru9BeaFtbbqqOpp3EjfY7oI6QR0gjrB4hRtmpNTVt3vMNqs9tqaS21XNsTVz4ZZX bjH8P4tzR8sDiQg69u01S2yvmnpnvjhfQU9AyFoxybIeU3SCOvEmPFhR2i2bzUdvs9MNRVJdZqjl qEimja0Ny7Ie0fLcWuLS7I74AJJPWt+rqe6R2mWN4o3VNTPTT0lTC50okiY8vjBad1paWE5OQQMD iQlNtB0pWWue6w3iLmUAZyk72PY3Ls7rQXAbzu1PajJHWBlBBZLLcJL1Q6YoaW+xUFFemVred00b aSKFrzM4tmaDymScNZkEbx3s7oxNvglXU1fO616hqaGgqqs1lRTNp43uMjjl4Y8jLGuOSQQ45PAj iD0IdW2Kez1F2ZdKcUNM7dnke4sMLv7r2uw5ruIG6QDkgYXLrto+n6a1iupaiWrAq46R8UUEnKRv c8N7dm7vN4bxAIG9jDckhBMkUcrNbadoKoU1XdY4pQxj5A9jxyDXgFplOMRZyMb+70r7VavssF5m sxr2sucbA8wmGR2A5pcHHAwW4HEg8OAOCQgkSKKP1zYrda7TUXW8Uwlr6aOeMxRSDlGlocZBHguY zpOXdA6TwK27hrCwWxlE6pucW7XRulpjC10okY1u8XjcB7UDjvdCCQItWiraa40UNZRzsnpp2CSK Vhy1zT0ELaQEREBERAUe1l/QlN5Vtv8A3sKkKj2sv6EpvKtt/wC9hQSFERAREQEREBERAREQEREB ERAREQEREBERAREQEREBERAREQEREBFyNQX636ZstRdbpNyVNCMnHFzj1NaOsk9AUFpqDWO0MCtu dwqNNWCXjBQUR3auZnU6ST+xnvDq4EdZCwa+9Wu1g9kLlR0mBk84nbHw7/EheKG/2a6Ybb7vQVZP QKepZJnzEqN0GybRFvGW2GCokzlz6tzpnOPfO8SP2L3cNlOh7i0iTT1JEekOpswkHv8AaEIJZUVE VLTyVFTKyGGJpe+SRwa1jQMkkngAO+oDJtQFxqZ6fSGnrlqEwu3HVMWIabe6wJXezHWMhcys2X3+ bkbH8K6mr0hJM2Sopao5qGsbxEbZAO2aSB3sYGAccbQpKSmoKWOlo6eKnp4mhscUTA1rR3gBwCCB u1htChbyk2zVxib8rkrxC92PE0DJPiW3Ztp9kuNzFquEVbYro7G5S3aHkTJn+67ODx4DJBPUFOlw 9R6YtOq7VLb7vSsnicDuOwN+J395jv7J/wD+HI4IO4iqnSevaTTNLcdO6zvkLK6z1ZpoZ5gQ+ogw DG8gZJOD097GcnJM3tetNNXx7IrbfrfUzP8AkwtnaJD/AOQ9t+xB30REBalTV01BGx9VURQsfI2J rpHBoc9xw1oz1kkABbah20dzYtO0dRI7cgp7tQyzPPQxgqGZcfEEEnnrKalkgZPURRPqJOSha9wB kfgndb3zgE48RWpcdR2W0Tsp7ld7fRTPGWR1FSyNzh3wHELi6vlY+/aOpGnenfdzOGDp3GU82877 BvN865uzyhoK623aqr6aCa8TXGqiuTpWB7gWyuDYyTx3AzdwDwx0IJ4yRssbXscHMcAWuacgg9BB XIp9X6aq6ttJTahtUtS5242FlZGXl3eDc5JXvTbLPDYaWOwvjktjA5sBilMjcBxBAcScgHI6cDq4 KlpaS71GxiGWSC2Gx09ZNPUyB5bWBjat5cYi4bjX5yBxyRwHE4QfoJFVV6vGpLzqa6U1nF7igoaO nmpRRmljaZJWOcJJeXcHObkbu6OHaOytm3VOobtru2UNwuNTQNjsNNXVlLTPjLZKgTPa4Z7YbjuO d05IDeKCwbfX0tyoo6yjmE1PJnckbnBwSD0+MFbaqDZ9d6yvnttpqHVNBSUUEtRSwA7jro8SyBx3 s/IZw7TgSXAntQml7trS5OsV8Aus8FfO3nrJ5aNtIIHZ/wB00O5QFnDq3nYOePBBaVvuFJc6XnNH O2eHffHvtzjea4tcOPeII/BbqpWhuN3ba7HZbZ2RbFXV11knNufAyd4jqHYa10xDW/LJOOPDh1rt Ut21RaaK2XXUE1RFT0t2koasSyQHlKWXDYpZeSJY1zHlgOP+LvoLQRRfRlXWXW2VV5qp3vhuNXJN RxOGBFTA7kWB/wATW75/xqUICIiDDLKyGN8sjwyNjS5zicAAdJKrS36v17q+mFy0tY7RR2h5cIJ7 tM9z6gBxbvBsZBZ0Hgc+IlTHXfc91L5KqvVOWHZ7gbOtOADA7GwH/wBAQcHlNsX0OivPU+1OU2xf Q6K89T7VYiIK75TbF9Dorz1PtTlNsX0OivPU+1WIiCu+U2xfQ6K89T7U5TbF9Dorz1PtViIgrvlN sX0OivPU+1OU2xfQ6K89T7VYiIKuuGr9e6QpjctU2O0VloYWiee0zPa+nBcG7xbISX9I4DHjIVlx SsmjZLG8Pje0Oa4HIIPQQuFr1rX7PdShwBHYupPEdYicQvmz8k7O9N54/wCzKf1bUEkREQEREBER AREQEREBV3J84iH7r/qSrEVdyfOIh+6/6koLEREQEREBERAREQFUWpnajbtzgOmW2x1f8HBvi5cp yfJ84dnG5x3s7vi6VbqruT5xEP3X/UlA5TbF9Dorz1PtWjcNJa+1nAbdqm8We32hxby9PaYXvfUA ODsF0nFnQOIP2gq0kQYYomQxsijYGRsaGtaBgADoAWZEQEREBERAREQEREBERAREQFG9n/c6035M p/VtUglcWRPcOkNJC4GgmhmzzTQHgumPniaUG1qm0Ov2lrpaWPDH1lNJExx6GuIOCfFnCh9zfqHV tmotO1emKyhc+emdcqqWaLkWMje17uSc15LySzA4cM8VZKIKxvdvvNLqGtqdO226UdyqaqJzi18c turGAsBklDuMZ3QQd0B2Rkb3StG6aXuHO9QWyqt19uNJdq91RHzSeBlO+NwZkSF/bNLCCBw4hrcK 3EQRDTlnqaHXGrq+enc2GtfRiCd2CZWsgDT5nZWDU+lYNRa0sMlxtsdbbKelqxLyoBY2Rxi3Mjvn DvMpsiCqrps9Md61DS6ftsVvo6/Thpo3wgMY+pMjyWn7W7oJx0Fbtworxqm5U0ws1ZamUVsrad/L vj/jZZmMa2NoY92WDG9vdGQ3xqyEQV/adP1kHxeSTUG6+1W98VSSBmB7qdjSPtLgRwXGqNMXmGei uTKe4tZRXm5yvhopI2zGGd7iyVgfwPQOHTh5xxVsogieiLX2Pt1bKaGvon1ta+qfHXSxvle4hoL3 bnBpdujIyf2rk0FbeNPXrUrW6Xutfz2vNTTS05hEbm8jG0AudICOLD1FWEiCs7ZpS70VTYqqqp2G rmu1dcq9sD95kDpoJQ1oJxnGWNz3/FxWuNJ3aLZtpGmgo6mOrtE8VTU0lM+Nkp7V4fuF3a74L97i ePHrKtREFWDTNbV2+4XKktt3bWOulFW8hcKiISVradzSe1b2rMtyBvHiWtzhbl4ZeNQW2prYtKy0 XI3KiqI2yPj51WRxStc4uaDhu6M7oLiSM9HAGx0QVncqS+RUmrrdDYa2u+EG9JSz8pEGR8pTsiLJ cvBbuFp6AcjoOVu2XT1fQX/VD54nzNnttFTU9Q7GZ3Mika/H4luftU/RBUdPp682jsPWS0V5kZ8H 6OgljtkkPKRTRg5Y8PPFp3ukZAIOeHEbcmnXWq1WJsNov1LPS0j44qu3VUc1RTFzw7kJGkBr2dHH BA3er5RtFEHE0ubx8Gbf2eaxt15Ic4DAAN7xhvAHGM44Zzjgu2iICIiAiIgKPay/oSm8q23/AL2F SFR7WX9CU3lW2/8AewoJCiIgIiICIiAiIgIiICIiAiIgIiICIiAiIgIiICIiAiIgIiICIo9qfVto 0jQMq7pO8GV25BBE3flnf/dY3rPRx4DiMnigidyg+Gm11tsqQX2fTMLKmaF3yZauQZj3h1gN4jxg jrKs1V9s5obk+t1HqK52ya2vvNYyWGCfAkETW4bvDpB4ngfMuo/Vb6PVd9oa7kY7ba7bHXulaxxe Ad8vzgnIAZwAGftQS1FGKTXmnLhV0NNS3EyPrxmlkEEgilOM7ok3d3eA6W5yDwIzwWvZNeW27vvh lbNRU9qqHxvnqI3sYWNa0lxc5oDTlxG7nOAD1oJeijlp1pZL1cRQ0dRM2pfFy0UdRSywctH/AH2b 7Rvj7Fo020vSdVbZ7jDdS+kp2MfNMKeTdj33hjQTu9O84cOkA5PDigmKLgUGr7Jc7t2Mo6wvqnRm WMGF7WTMGMvjeQGyN49LSVqv1/ptlcKY3B2DPzbnAgkNOJc43DNu7gd4t5B1Tp+zuuEtwfaaF1dL jlKl1OwyOwMDLsZPAALj3nZ1pO+xyNqrFRxyv7bnFNEIpQeoh7cHI8eQsdJriCs1VebFT26tknt0 bSDyD2iZ+Hkty5oa0doN1znYdnhwGVpQ3/V1uuFhdfKW1Np7vUc2dSUofy9K8xueMvLi14G4Q7AG OrKDkxXa8bNLxS27UNwmummKx4ipbpPxlo354Mmd/aaf7x7x6AMC01y7/ZqTUVirrRWtDqeriMbu Gd09Th4wcEeMKNbKrrVXHREVPXu3q+1zSW2p/wAURwPtO6W5PWUE5WtV0lNXUstNV08VRBK3dkil YHNeO8QeBWyiCP2bR2n7DUuqrbaoIKhzdzleLnNb/daXElrf+EYHiWK6aF0zerk64V9ohlqngNkk DnM5UDoDw0gPHRwcD0DvBSVQnaBV3+miskWnZ2RV09eRuPA3J2shlk5J2egO3AM8MZ6UEtpqeCjp oqeniZDBEwMjjjaGtY0DAAA4AAKPDZ7pQhjX2aGWNjzI2KV75Iw4nJO44lvEknoWhDq1lzvemqul qHw22soK6aphkGCx8RhBD+sOYS8H8VitG0c3Ktt0ctlkpaa7ZFunfVxPLzyZe3lWtJMe8BgfKOek BBIbzpOxX6YTXO2xVEoYIzJksc5gOdxxaQXMzx3TkZ6lt09lt1LXNraekiiqGUzaRr2DG7C0ktYB 0AAk9Shuj9dXC5QWx15oaeBlydWmGpjqN4DkZDhjm7gwd0O45ORHnrwNm1bRWXWz2usjtboqmuuP M3U0k2DCzcMplJ3foQH4x/aAz1oJG3TtpjjoImUEbW0EpmpSCQYnHOSDnPHJyOg54rXh0fp6lu7L rBaYI6yMl0bm53Y3O+U5rM7rXHPFwAJ6yuXbtcy1htNVU2WajtV3lEVDVPqGOcS5pczlGD5AcGnG C7jgHGVxLprOvudgiuHNJLTRQ3unpjVc8H8c1tVycnQBhha3jnvkYIGSEym0pYqm2toJrdEadkr5 owC5ro5Hkuc5jwd5riXHiCDxXJvWkHS6Z+DGn6a30FqqQ6Orc5ri9jSRkxtxhzyN7tnHgQOnq62n 76/UMdTWQ0borYJNyjqHv7aqaOmQMx2rM/JOcuHHAGM91Br01PDR0sVLTsbHDCxscbG9DWgYAH4B bCIgIiII/rvue6l8lVXqnLHs/wC51pvyZT+rasmu+57qXyVVeqcsez/udab8mU/q2oJIiIgIq7m2 iXWntt0vEmmWvs9vqpqeWeK4NMpEchY5wjcwDqzjeXXuWp7o2+U9rstlhr3S0IrS+orTTbrS7dAx ybjnzIJaiiEGuaWGkvT73Ry2yosrGSVkReJQWPBLHMc35QdgjoBzwIC+Q6qvjRT1Fw0hWU1DPI1g kiqGzzxBxwHSRMGQOI+SXEdYGEEwREQR/Xfc91L5KqvVOWPZ/wBzrTfkyn9W1ZNd9z3Uvkqq9U5Y 9n/c6035Mp/VtQSRERAREQEREBERAREQFV+rrhDpDatZ9U3NzmWiqtslsmnEbnCneHmRpdug/Kzg DxE9StBYpYo5onRSsa9jhhzXDII8YQcFuvNIOaHDVVkwRnjcIgfMXL38O9IfWux+kYf3ljOz/RxO TpWzfko/YnxfaN+qtm/JR+xBk+HekPrXY/SMP7yfDvSH1rsfpGH95Y/i+0b9VbN+Sj9ifF9o36q2 b8lH7EGT4d6Q+tdj9Iw/vJ8O9IfWux+kYf3lBPghpv48OxvYC2cx+DnLc25qzk+U5zu7+7jG9jhn pwpv8X2jfqrZvyUfsQZPh3pD612P0jD+8nw70h9a7H6Rh/eWP4vtG/VWzfko/YnxfaN+qtm/JR+x B9drzSDWlx1VZMAZ4XCInzByiOk7hDrLatdNU20ufaKG2stkE5jc0VD3P5RxG8B8k5BHjB61LRs/ 0cDkaVs35KP2LvxRRwxNiiY1jGjDWtGAB4ggyoihe0S+1lioLO6juUNtFXdIqWeqmY1zY43MkJJ3 uA4tHFBNEVfUWoX08NfWw6yotTOpKSSc0FG2na8huO3y1/ADPH7e/gLUt2trxWXDTUktuq3dkbLJ VOoadsX8bLmIh7XF+Gsw5xG84cCARnggsxFETruhfaqGspaC4VVTWyyQw0EcTeXD43Fsgdl260NI 4kux0YzkLDNtFtUNspaxlHcJZJ68200bYm8vHUhpPJuBdjPADIJHbA5xkoJoihVTtBpqY3VjrNdX S2iKKa4RsbF/J2PiEu8SXgO3QSCGknLTgEcVs3LXFHRVAhpbdcro4Uja6Z1DC1zYYHZLXOLnDiQ1 xDRlxwcBBLEULptavuGsLZa7fQSVFtrrUbi2rG6CGlzA12HOBDRkgjdLsubgYBXjWF2udNqnTloo LvFa4bhHVunmkhZJ/u2xloG9wHyigm6KJQ19bYrXWV9ZcqnUmHRtigt9EzlGknGAGHBzkEkkABq5 WoNdOi0xd6mGCqtlxtVTRsq6edjHvjZJLHkjcL2uDmOcARx6eghBYSKH1GvKSihur6+2XKjkoKTn vIzMZvTQZxvMw4jp4EEgjIyAvUGrKWWrpqmqiuNupn0NVWblUyNrHQxmImVwBLmnD+A4cC7eGcIJ cijVj1Y281zaY2e60Qlg5zTzVUAEc0ecZDmudunoO67BwRwUlQYp/wCby/4D/kuJoTue6a8lUvqm rrV8hit1VIACWQvcAfECudpCIU2irDADkR26nYCevEbQg7aIiAiIgIiICIiAiIgIiICIiAiIgIiI CIiAiIgIiICIiAo9rL+hKbyrbf8AvYVIVHtZf0JTeVbb/wB7CgkKIiAiIgIiICIiAiIgIiICIiAi IgIiICIiAiIgIiICIiAiIgxyStijdI9waxoLnE9QHSqz2f0J1beKvaFdI3vdPK+G0RScRT0zTu7w HU5xDsn7cfKUz1i+aPRF/fT55dttqDHu8Tvcm7GPxWls4bC3ZtpwQ43OYRE4/vFvbftyglSq/UdF VS33Xr46eZ7ZtMiKItjJEj92btW988RwHfVoIgq2st07tnuzqJtJNy1NW2qSRjYzvRYaA8uHVgF2 c985XKu9Bcqqwa/07S0dV2UnupuMEYhcGzwZgPaSEFhcd0jdznxdKudEFXWZtLe9bWqc3HVNyntj ZpBJW0EdNBTOczccyQmKNxcQR2rc9GegFRltprW/wWHULaCoFa45dTiF3KE89zktxn5IB+wK90QV /qqkqn7TdCSU0UgihZcWvlYwlkWYGhu8cYHHoz3lA7dapRoym0jfKjVgrHycjNaaKgiLMcqSJGzO iDdzOHF3KdOVfiIK8p61undo+p5q2nqyysoaWaldHTvkEohjlLxvNBAdw6HEEkjGchaWmtSUN2u1 Ld9QPrReZXcnRUTbdU8jb2v4boeYw10hHB0hOOkDDc5tBEBV1sqO8/Wr28WO1PWbp/8Al/8A9KWa mvtPpnTVwvNSRydJCXgE43ndDW/aXED8VDtn9v1RYdGUMTLZbamWqBraiWpuEkMhklO8Q5ogeAQC B8rq6kFlIo/zzWHgOx+mZfdU55rDwHY/TMvuqCQLkXW0vuNxs1U2VrBb6x1Q5pGd8GGSPA73+8z+ C1ueaw8B2P0zL7qnPNYeA7H6Zl91Qcr4BxN1xLe2VI7H1FPMyag5PtTNKGNkkB6t4RsyO+CesrDp 7Q9ZY6q3QyTWeWhoG7rJI7Y1lTNhuG77y4gEcOLRk46l2+eaw8B2P0zL7qnPNYeA7H6Zl91QRefZ zXS6Rdp+G7RwinrJpqGqbCeUjjlMoka/jgndmeARjqOF2ItExM1pJeDOx1udSmNtCWcGzOYyIyZ/ 5UbWY+1dDnmsPAdj9My+6pzzWHgOx+mZfdUHEt2i7pCyyW64XalqbRZJWS0rGUrmTSljXNjEjt8t 7TIPBvEtB4YWSfQnOtHU+n6ieGWNlzNbKXx5bIw1Lpiwjxh26uvzzWHgOx+mZfdU55rDwHY/TMvu qDzp2xTacFZRQ1LX2h0vKUUBbh9KHcXRg9BZni0YyMkcRjEiUf55rDwHY/TMvuqc81h4DsfpmX3V BIEUf55rDwHY/TMvuqc81h4DsfpmX3VBIEUf55rDwHY/TMvuqc81h4DsfpmX3VA133PdS+Sqr1Tl j2f9zrTfkyn9W1cXWVTqh2h9QCptFnjhNtqRI+O6yvc1vJOyQ004BOOrIz3wu1s/7nWm/JlP6tqC SItarqqegpJaqrnjgp4ml0ksrg1rAOsk8AFyaLWOmbjVx0tDqC21NTJnchhqmPe7AJOADk8AT+CC pa2xUs1pv9PNp3U018kuVVLRmKCo5u5xmc6JxDv4gs6CSR0Z68KbwWO53LVdsmu8ldT1DLDGyqno pHRMNRygLm7zeB45OFOaOrhrqOGqp378MzBJG7BG80jIODxWygqT4H3KfSGqtN8hPJeTUMqIrpVb z23FrXiSHee7gXAM5Mt6G8DjBUng1pcbgyGCi0neG3F0gZLFWwmnhhGQHOM3Frm4yRu7xPDgFNEQ EWpUVtNSz0sM8oZJVSGKFpz27w1zsD/ytcfwXi13OjvFuhuFBO2eknbvRytBw4Zx1/Yg5uu+57qX yVVeqcsez/udab8mU/q2rJrvue6l8lVXqnKPaIqtTt0JYG01otEkAt8AjfJdZWOLdwYJaKdwB8WT 9pQWCij/ADzWHgOx+mZfdVoSXzVMd6prY6xWgzVFPNUMcLxLuhsbo2uBPNs5zK3HDqPR1hL0Uf55 rDwHY/TMvuqc81h4DsfpmX3VBIEUf55rDwHY/TMvuqc81h4DsfpmX3VBIEUf55rDwHY/TMvuqc81 h4DsfpmX3VBIEUf55rDwHY/TMvuqc81h4DsfpmX3VBIEUf55rDwHY/TMvuqc81h4DsfpmX3VBIEU f55rDwHY/TMvuqc81h4DsfpmX3VBIEUf55rDwHY/TMvuqc81h4DsfpmX3VBH/wD8Qv8A/Sn6tWAq +7Cav+ML4V9j7J/RXY7mvZOX6XlN/f5t+GMePPUpDzzWHgOx+mZfdUEgRR/nmsPAdj9My+6pzzWH gOx+mZfdUEgRR/nmsPAdj9My+6pzzWHgOx+mZfdUEgUT1rZLleobLJa46WWe33SKtdFVSuja9rWP BbvBrsHLh1Lc55rDwHY/TMvuqc81h4DsfpmX3VBqsh1Fc4KqhuVqtVFS1NPJC6elrnzPbvNIGGmJ oPT31z9M6Yu1vr9PVFe2jYLZZn22QQTOfvuBi3XDLG8CIySOonHHpW3ab7qm82ahulPYrQ2Gsp46 iNst3lDg17Q4AgUxGcHvlb/PNYeA7H6Zl91QRK4bOZKqnoppaS23Coo6+vqTR1b3CGaOolc4DeDS WvA3OO6RkEeNblu0XW01NY92js1A6lvDq+ent4e2MM5J8YALhl7+LcnDR4uGTIeeaw8B2P0zL7qn PNYeA7H6Zl91QafwdrDJrF+9D/tgjm3bHhimZF23Dh2zT0Z4KM1+ziZ1THWss9iu1Q+309I9lxe9 rYZYmlvKNLWu3mkEAtw09qOKmXPNYeA7H6Zl91TnmsPAdj9My+6oOTQ6Wr7Zqex3KlioOQgtb7fV wwl0TIsvZIHRNIdkbzSN0kYGOKz6j0nHqHVen66rpaKrt1AyqbPBVMD94yNYGENIIOC09OMcFv8A PNYeA7H6Zl91TnmsPAdj9My+6oOVqPRm9YOZaWobbby6qhmqoI4xTMrImHJic6NuRnhxx1Y6CVFq rZpe2yaiitos1JTXttFJyUIextJLBK1xa1obh7S3eJd2pLupuVPueaw8B2P0zL7qnPNYeA7H6Zl9 1QRq+aRv2pDfKisbbqeqmtT7bRMime9pDnh7nvJaN3Ja3AAOMHiV2b7paS+3CPlXsbRutNXb5iCd 8GYxYLRjGAGO6+8tznmsPAdj9My+6pzzWHgOx+mZfdUGtYKfVkFXDDd32plvpqYRNFKXvkqJBwDz vABgx/ZGeOeOFKVEJL5qmO9U1sdYrQZqinmqGOF4l3Q2N0bXAnm2c5lbjh1Ho69/nmsPAdj9My+6 oOpdf6Irf/Dyf6StXTP9U7N/4GD/AENXOqpNXVNJNT9hbI3lY3M3uzEpxkYz/NVitg1dbbXR0PYe ySCmgZDv9l5RvbrQM45tw6EEsRR/nmsPAdj9My+6pzzWHgOx+mZfdUEgRR/nmsPAdj9My+6pzzWH gOx+mZfdUEgRR/nmsPAdj9My+6pzzWHgOx+mZfdUEgRR/nmsPAdj9My+6pzzWHgOx+mZfdUEgRR/ nmsPAdj9My+6rQtN91TebNQ3SnsVobDWU8dRG2W7yhwa9ocAQKYjOD3ygl6KP881h4DsfpmX3VOe aw8B2P0zL7qgkCKP881h4DsfpmX3VOeaw8B2P0zL7qgkCKP881h4DsfpmX3VOeaw8B2P0zL7qgkC KP8APNYeA7H6Zl91TnmsPAdj9My+6oJAij/PNYeA7H6Zl91TnmsPAdj9My+6oJAij/PNYeA7H6Zl 91TnmsPAdj9My+6oJAij/PNYeA7H6Zl91TnmsPAdj9My+6oJAij/ADzWHgOx+mZfdU55rDwHY/TM vuqCQKPay/oSm8q23/vYV955rDwHY/TMvuq5t4p9XXajipuxNki3Kqmqd7stK7PIzMl3cc2HTuYz 1Zzx6EEyRRSvu+q6C3VNZJYrKY6eJ8rg27ykkNBJx/Jhx4d9ZYLlqyop4p2WOyBkrA8A3iXOCM// AJZBJkUf55rDwHY/TMvuqc81h4DsfpmX3VBIEUf55rDwHY/TMvuqc81h4DsfpmX3VBIEUf55rDwH Y/TMvuqc81h4DsfpmX3VBIEUf55rDwHY/TMvuqc81h4DsfpmX3VBIEUf55rDwHY/TMvuq7wzgZ6U HpERAREQEREBERAREQEREBERAREQYpImSxujkaHMeC1zSMgg9IVabPq86SutRs8urzHLTyPmtMsn AVVM5xcAD1vB3sj7cfJVoKO6n0ladXULKa5wyb8Tt+nqYXbk0D/7zHdR6OHEcBkcEEiRVBqKbaDs 601UXOPUNuvlspdwHslTObO0Oe1gGWHt+LhkuOen7FbcUgkiY8dDmg+dBG9f6gm0vom53ela11RC xrYt/wCSHve1jSc8MAuz+C5Q2cMNseXaivovr2Z7JmvlJa/p4RhwYWA/2cdHDKkupLHTam09XWWs /wBxVRFhcBksPS1w8YcAR9ii0Nv2kx2w2l9wsLWhnIsujRKZwzGA7kiN3lOv5WM99Bw9Xy0sO0K0 UWpKy5zUvYZzn9jxOzlJxIBvlkJJAxveIZC6NuZptlpv1Vp916bVRW2YOdXPrAAC0kFom4Zy0cRx H4reuWnNSUeq7bebK6jrua2o295uVS9kkh3w7fJaw5J3Rno6SuhyerbnQ3KhulBaKeKoo5Yo301X JITI4YaCHRjDeJyf2II3s2utwoaG3afvFVLUvuFtjuNsqpnkula9gdLCXHpcxzsjp7Ujowudp64V smmNmMj6uoe+orZGzOMriZBuS8HHPHoHT3lLKrR9XNoCy22KeOC+Wanp3UlU0ksZURMDTxxksdgt IxxB6FoWjQ11oLJomillpTLY6l8tUWvcQ5pbIBudrxPbDpwgwWa3P1/er9cLzX13Y6huMtupLfS1 b4Ii2LGZHhhDi4k54n8MYUu0/Y6mxc8gdeKquopJQ+mjqiZJKcY7ZnKOJL256M8R0ZK4B03qXTuo rlXaVltc1vuk5qqmhuDpGGOcjDnxvYHfKPEgjq4Lv6doL3S87qr7cWVNXVPa7kKZpbT0zWtwGxh3 bHPEknpPUEG1qCy0uo7DXWitbmnqojG44yWnqcPGDgjxhRnZXd6q4aQ5hcXb1ys9RJbKp2c7zojg HPSe1LRk9JBU7Vd6HJi2mbQqVn+4bU0coH/G+Jxf+0BBYiIiAiIgIiICIiAiIgIiICIiAiIgj+u+ 57qXyVVeqcsez/udab8mU/q2rJrvue6l8lVXqnLHs/7nWm/JlP6tqDBtM7meov8AwMn+S82ut1I+ SBtbpqhoqXkzvTw3LlXsw04wzkm5ycDp4ZUhuNBS3O3z0NbCJqWdhZLG7OHNPSOC2dxvJ7mO1xjH iQVTpisvN91Lp6Ga+VzKYaZpK+eKJ4HLzGRwJcSDwOOOME4AzjK0NP3nW90ltV8ZHczHV3AR1TJq qkFKKflHNdHHHvB4e3HTjeJaQrUobFbLdPDPSUccUsFK2ijc3OWwNOWs+wFajNHaejvDbsy00za0 PMgkDcASHpeG/J3z1uxk99BXsmpb3TChpBcpTJp6omkvL38TNA2pZGzfP/FC58me+xbkl1rbpBTN 7KXYyXe7VUtJSW5zI5HUsOWNHKPIEcfaBxI4kyDHfU+dpy0Pnus7qKIyXaNsVc45/j2BpYAeP90k cFr1WkrDW0Vvo6i1QS09uAbSMcD/ABTQAN0HpwQACDwI6coILp681V4GmxWyvmmo9S1lIJJJGve5 jKeo3d5zeBIBAyOBxnrUk2R9yvT/APyHf63Ls02lLFR15r6W2QQ1JlbNvRgtG+1jmB26OAO69w6O tb1rtlHZ7dDb6CBsFJA3djiaThoznr+1Bzdd9z3Uvkqq9U5Y9n/c6035Mp/VtWTXfc91L5KqvVOW PZ/3OtN+TKf1bUEkUfrO6HZvJVf62kUgUfrO6HZvJVf62kQSBERAREQEREBERAREQEREBERAREQE Rcq5aislnlZHc7xb6GR4y1lVVMiLh3wHEZQdVFH/AId6Q+tdj9Iw/vJ8O9IfWux+kYf3kEgRR/4d 6Q+tdj9Iw/vJ8O9IfWux+kYf3kDQnc9015KpfVNUgUB0brHS9LofT9NUaks8M0Vup2SRyV8TXMcI mggguyCDwwu98O9IfWux+kYf3kEgRR/4d6Q+tdj9Iw/vJ8O9IfWux+kYf3kEgRcq26isl4lfHbLx b66Rgy5lLVMlLR3yGk4XVQERYpZY4YnSyvaxjRlznHAA8ZQZUUf+HekPrXY/SMP7yfDvSH1rsfpG H95BIEUf+HekPrXY/SMP7yfDvSH1rsfpGH95ArO6HZvJVf62kUgUBqtZaWdri1VDdSWcwx22sY+Q V8W61zpaUtBO9gEhriB17p7y73w70h9a7H6Rh/eQSBFH/h3pD612P0jD+8nw70h9a7H6Rh/eQSBF H/h3pD612P0jD+8u3FLHNE2WJ7XscMtc05BHiKDKiIgIuVctRWSzysjud4t9DI8ZayqqmRFw74Di MrU+HekPrXY/SMP7yCQIo/8ADvSH1rsfpGH95Ph3pD612P0jD+8gkCj+hO57pryVS+qanw70h9a7 H6Rh/eXB0brHS9LofT9NUaks8M0Vup2SRyV8TXMcImggguyCDwwgnyKP/DvSH1rsfpGH95Ph3pD6 12P0jD+8gkCKP/DvSH1rsfpGH95bdt1FZLxK+O2Xi310jBlzKWqZKWjvkNJwg6qIiAiIgIiICIiA iIgIiICIiDga1lfDoTUMsZw9lsqXNOM4IicQuvRxtio4I2/JbG1o+wBcHX/c+1C0ZLnW6drQBkkl hAA+0lSUAAYHQg+oiICIiAiIgIiICIiAiIgIiICIiAiIgIiICIiAiIgIiICIiDi6rs3wh0rdbQN3 fq6Z8bC7oD8dqfwOCuPszv3Z3RFCZt4V9E3mVZG/g9k0Y3TvDqJAB/FTJV1f9KXiy6hfq3RTIXVs /C52yV+5FXNHQ5p6GyDv8Ack98OCxUVeW/a/puSQUl7dUWG5tGJaS4Qubunrw/GCO8TjPeW9WbV9 DUMHKP1HSyDoDYN6Vx/BoJQTVFVFZtQv0UsV8Zpaop9IQzNjqauqaW1Dmu4co2PpDAcdRzw4jjiz aOtpbjRxVdFURVFNK3ejlicHNcO+CEG0iLVra2lt1HLV1tRFT00Td6SWVwa1o75JQbSKrLfr3Wl3 E94s2kYrjp18zo6T+UiCpexvAyYdwLSc4AAPV41vfGVd3DkItnepjWf3XwBkP/1ej9iCbXO50tnt 1RcK+oZBS07C+R7zgAe3qA6yobsqp6mos1y1LWROjnv9dJWsY8YcyHojb4+AJB7xC0RprU+u7hTV Gs4oLbY4HiVlkp5OUdM4dBmeOBA4cB5h0qzGtaxga0BrQMAAYACD2iIgIiICIiAiIgIiICIiAiIg IiII/rvue6l8lVXqnLHs/wC51pvyZT+rasmu+57qXyVVeqcsOz3B2dacIOR2NgH/AKAgkyIiAiIg IiICIiCP677nupfJVV6pyx7P+51pvyZT+ravuvXNZs91KXEAdi6kcT1mJwC+bPwRs703nh/syn9W 1BJFH6zuh2byVX+tpFIFH6zuh2byVX+tpEEgREQEREBERAREQEREBERAREQEREHK1FcZLPpq63SJ jXyUdHNUNY44DixhcAfMoHs/2e6en0hb7vd7ZT3S53KBtXU1VazlXPL+2HB2QMBwGRjOMlTHXfc9 1L5KqvVOWPZ/3OtN+TKf1bUD4vtG/VWzfko/YnxfaN+qtm/JR+xSREEb+L7Rv1Vs35KP2J8X2jfq rZvyUfsUkRBG/i+0b9VbN+Sj9ifF9o36q2b8lH7FJEQRv4vtG/VWzfko/YnxfaN+qtm/JR+xSREF X6/2eafi0jcbtZ7bS2q6WyB1ZTVVGzkXNMfbngzAOQ0gE5xlTnTd0detM2q6yMDH1lJFO5gOQ0ua CQPxK1td9z3Uvkqq9U5Y9n/c6035Mp/VtQSRVfq63w6v2rWfS1za59opbbJc5oBI5oqHl5jaHbpH ycZB8ZHWrQVdyfOIh+6/6koO8NnujQAPgtZ+Hfo2H/2Xr4vtG/VWzfko/YpIiCN/F9o36q2b8lH7 E+L7Rv1Vs35KP2KSIgjfxfaN+qtm/JR+xPi+0b9VbN+Sj9ikiII38X2jfqrZvyUfsT4vtG/VWzfk o/YpIiCMnZ7o0gj4LWfj3qNg/wDZRTSdvh0btWumlraHMtFdbWXOCAyOcKd7X8m4DeJ+UcknxAdS tFV3J84iH7r/AKkoLEXK1FcZLPpq63SJjXyUdHNUNY44DixhcAfMuqo/rvue6l8lVXqnIIds/wBn unp9IW+73e2U90udygbV1NVWs5Vzy/thwdkDAcBkYzjJUt+L7Rv1Vs35KP2Js/7nWm/JlP6tqkiC N/F9o36q2b8lH7E+L7Rv1Vs35KP2KSIgjfxfaN+qtm/JR+xPi+0b9VbN+Sj9ikiII38X2jfqrZvy UfsT4vtG/VWzfko/YpIiCN/F9o36q2b8lH7FE9f7PNPxaRuN2s9tpbVdLZA6spqqjZyLmmPtzwZg HIaQCc4yrQUf133PdS+Sqr1TkGzpu6OvWmbVdZGBj6ykincwHIaXNBIH4lddRvZ/3OtN+TKf1bVJ EBERAREQEREBERAREQEREEd1uSdHXBgGXStZE37XPa0ftKkSjWuHEaaLRj+MraKIk9QdVRNP7CpK gIiICIiAiIgIiICIiAiIgIiICIiAiIgIiICIiAiIgIiICIiAiIg1quipa+LkaumhqIs53Jow8Z+w rXprHaaOYTUtrooJRwD4qdjXD8QF0UQYJoIqmF8M8bJYpGlr2PaHNcD0gg9IUBm2Z1FpqZavReoq ywmR5kfRlonpS49OI3fJz3+OOoBWKiCvOxm1Te5Ls9p7kcY5fmj+U6end+T0cenpXmHZnUXapiq9 aairL8Y3iRlGGiClDh0Zjb8rHf4Z6wVYqIMEMEVNCyGCNkUUbQ1jGNDWtA6AAOgLTsNz7Naftt1M PI89pYqnkt7e3N9gdu5wM4zjOAumo/oTue6a8lUvqmoJAiIgIiICIiAiIgIiICIiAiIgIiICIiDD LEyaN8UjA+N7S1zSMgg9IKrO36S19oyAW7S14s9wtDS7kKe7QvY+nBcXYDo+L+k8SfsAVpIgrvlN sX0OivPU+1OU2xfQ6K89T7VYiIK75TbF9Dorz1PtTlNsX0OivPU+1WIiCu+U2xfQ6K89T7U5TbF9 Dorz1PtViIgrvlNsX0OivPU+1OU2xfQ6K89T7VYiIKtuGktfazgNu1TeLPb7Q4t5entML3vqAHB2 C6TizoHEH7QVZkUTIY2RRsDI2NDWtAwAB0ALMiAo/Wd0OzeSq/1tIpAo/Wd0OzeSq/1tIgkCIiAi IgIiICIiAiIgIiICIiCG6x1hVWKuttns9q7KXm5coYKczCJrGsGXPe49Xi4ZweK5gl2wEA8hosE9 RNTw/akoB/hDw5wcaYJHi/lJVioKvutDtYvFnrbXUM0e2Ctp5KeR0ZqQ4Ne0tJBORnB7xXm0W/ax ZbNRWqmbo90FHAyCN0pqS4taAASRgZ4d4K0kQV3ym2L6HRXnqfanKbYvodFeep9qsREFd8pti+h0 V56n2pym2L6HRXnqfarERBXfKbYvodFeep9q+GXbAATyGiyR1A1PH9qsVEEN0drCqvtdcrPeLV2L vNt5Mz04mErXteMtexw6vFxxkcVMlXTgG/whmFoxv6Zy7HX/ACk9PmHmVioI/rvue6l8lVXqnKut EX3aHeNG2gaestlpLdTUjKdlRc53vNSWDcLmtjwWjLTwI+wqxdd9z3Uvkqq9U5YdnuBs604AMDsb Af8A0BBweU2xfQ6K89T7VxXae2pO1k3VBGk+fNoOYCPfqOT5Pf3846d7J7+MdSt5EFd8pti+h0V5 6n2pym2L6HRXnqfarERBXfKbYvodFeep9qcpti+h0V56n2qxEQV3ym2L6HRXnqfanKbYvodFeep9 qsREFXXDV+vdIUxuWqbHaKy0MLRPPaZntfTguDd4tkJL+kcBjxkKy4pWTRsljeHxvaHNcDkEHoIX C161r9nupQ4AjsXUniOsROIXzZ+Sdnem88f9mU/q2oJIqc1hernZdulCbNaRdLjV2Dm8MDphE0Hl pHlznHhgBh4cPtVxqupQD/CHhzg40wSPF/KSgCXbAQDyGiwT1E1PD9q1LrQ7WLxZ6211DNHtgrae SnkdGakODXtLSQTkZwe8VaCIKttFv2sWWzUVqpm6PdBRwMgjdKakuLWgAEkYGeHeC3uU2xfQ6K89 T7VYiIK75TbF9Dorz1PtTlNsX0OivPU+1WIiCu+U2xfQ6K89T7U5TbF9Dorz1PtViIgroy7YACeQ 0WSOoGp4/tXT0drCqvtdcrPeLV2LvNt5Mz04mErXteMtexw6vFxxkcVMlXTgG/whmFoxv6Zy7HX/ ACk9PmHmQWKo/rvue6l8lVXqnKQKP677nupfJVV6pyDHs/7nWm/JlP6tqkijez/udab8mU/q2qSI CIiAiIgIiICIiAufc7tb7NQPrLlWQ0lMz5Uszw1viHHpJ6h0ldBUztNrHR7TdPMrbPPe7VS0clVL QQs3zneLTJudD93tTg+PoQSD414LmS3S2m73fh0NqIqcw05PeMj+j8QvYv20yszyGjbXbx1CsuQl J/8Apjx/sK6th2h6PvkUTaC+UUbzhjaaZwgkBx8kMdgnHiyFK2ua9oc1wcD0EHIQVhdKDavd6SOn qGaQbGyohqO0NSCXRSNkaDnPAuYM+LvdK3udbXIO2kodITt/uwyTsPnccKxEQV27WWurcC+57O5p YW/Klt1wjmcfsjxvFb1l2oacu9c221EtTaLo4gcyucJgkz1AE9qSeoZye8pVWXOhtsBmr6ynpYmj JfPK1jQPtJVV7QdY6U1RZqyw2yiOpbm6Jwg5pCXtpXEcJTLjDQOklpOcYOASguBFD9mVbU3DZvYq mrlMszqYNLz0kNJaM984AyVMEBERAREQEREBERAREQEREBERAREQEREBERAREQEREBERAREQEREB ERAUf0J3PdNeSqX1TVIFH9Cdz3TXkql9U1BIEREBERAREQEREBERAREQEREBERAREQEREBERAREQ EREBERAREQFH6zuh2byVX+tpFIFH6zuh2byVX+tpEEgREQEREBERAREQEREBEXK1FcZLPpq63SJj XyUdHNUNY44DixhcAfMgXLUVks8rI7neLfQyPGWsqqpkRcO+A4jK1Ph3pD612P0jD+8ods/2e6en 0hb7vd7ZT3S53KBtXU1VazlXPL+2HB2QMBwGRjOMlS34vtG/VWzfko/Ygg79VadO3SO4/CC18yGn ORNTzyPkuU5wTub2cb2OOM5wp58O9IfWux+kYf3lj+L7Rv1Vs35KP2J8X2jfqrZvyUfsQZPh3pD6 12P0jD+8nw70h9a7H6Rh/eWP4vtG/VWzfko/YnxfaN+qtm/JR+xBk+HekPrXY/SMP7yfDvSH1rsf pGH95Y/i+0b9VbN+Sj9ifF9o36q2b8lH7EGT4d6Q+tdj9Iw/vLbtuorJeJXx2y8W+ukYMuZS1TJS 0d8hpOFofF9o36q2b8lH7FE9f7PNPxaRuN2s9tpbVdLZA6spqqjZyLmmPtzwZgHIaQCc4ygtBFyN N3R160zarrIwMfWUkU7mA5DS5oJA/ErroK4qZGQfwgWSyvayNmlyXOccADnJ4kqT/DvSH1rsfpGH 95V7qzS1Dq7bxb6G5sMtFFYRPLFvObyuJpGhpLSCBvOB/wDKp4NnujQAPgtZ+Hfo2H/2QcfWWsdL 1Wh9QU1PqSzzTS26oZHHHXxOc9xicAAA7JJPDC8aJ1jpik0JYKep1JaIZ4rfAySKSuia5jgwAggu yCO8u78X2jfqrZvyUfsT4vtG/VWzfko/YgyfDvSH1rsfpGH95Ph3pD612P0jD+8sfxfaN+qtm/JR +xPi+0b9VbN+Sj9iDJ8O9IfWux+kYf3k+HekPrXY/SMP7yx/F9o36q2b8lH7E+L7Rv1Vs35KP2IM nw70h9a7H6Rh/eT4d6Q+tdj9Iw/vLH8X2jfqrZvyUfsXk7PdGkEfBaz8e9RsH/sgkMUsc0TZYnte xwy1zTkEeIrKqu0nb4dG7Vrppa2hzLRXW1lzggMjnCne1/JuA3iflHJJ8QHUrRQR/Xfc91L5KqvV OXH0jqGy2bZ/pmK6Xi30Mj7XAWtqqpkRcOTbxAcRldjXfc91L5KqvVOUK2bbNtMM0Raq6utFJX11 bTMnlmqo+U+UN5rQHZDcAgcAM4QTX4d6Q+tdj9Iw/vKBv1Vp07dI7j8ILXzIac5E1PPI+S5TnBO5 vZxvY44znCnHxfaN+qtm/JR+xPi+0b9VbN+Sj9iDJ8O9IfWux+kYf3k+HekPrXY/SMP7yx/F9o36 q2b8lH7E+L7Rv1Vs35KP2IMnw70h9a7H6Rh/eT4d6Q+tdj9Iw/vLH8X2jfqrZvyUfsT4vtG/VWzf ko/YgyfDvSH1rsfpGH95Ph3pD612P0jD+8sfxfaN+qtm/JR+xPi+0b9VbN+Sj9iDftuorJeJXx2y 8W+ukYMuZS1TJS0d8hpOF1VV+v8AZ5p+LSNxu1nttLarpbIHVlNVUbORc0x9ueDMA5DSATnGVOdN 3R160zarrIwMfWUkU7mA5DS5oJA/EoOuq7k+cRD91/1JViKu5PnEQ/df9SUFiKP677nupfJVV6py kCj+u+57qXyVVeqcgx7P+51pvyZT+rapIo3s/wC51pvyZT+rapIgIiICIiAiKL671a3RuneyAp+c 1M0zKalgLt0SSuzgE9QwCfwQSha1VXUtEzfqqqCBv96WQNH7VX0Wh9VahDZ9V6xracOGTb7Kebxx 5/sl/EvH2j7Ctyj2OaGpJBK6y86m/tSVVRJIXHvkF27+xB3pNb6TieWSansrHjgWuuEQI/DeUIqt Uaem202isiv1skpW2iWIztrIywPMgw3ezjePe6VMGbPNGxsDRpe0ED+9SMJ85CO2e6Oe3dOlrPg8 OFGwHzgIFbp3R2rS6Wpt9puT3DBnYGOfj/G3tu/1rh/Exo+B29b4bhbnH+1SV8rT+0lbFXsf0JWv 33WCOGTqdTzSRYPfAa4D9i0nbPtRWNvLaS1ncWObxFFd3Cpgf/wg4yweMAlB7+KaADDNZ6zY0dDG 3Xg0d4dovo2R26QnnmpdU1rTgblTcyRjrHatHArraD1ZNqi21za6lZSXW3VT6SuhjdvMEjeksOT2 p4/iD09JlyCB0ex/QtHOJ+wbKibJJdVTSS7xPWWucWnzKSzW6iten6ymt9HT0kAgkxFTxNjaO1PU Bhddad1/oit/8PJ/pKCLbI+5Xp//AJDv9blNVCtkfcr0/wD8h3+tymqAiIgIiICIiAiIgIiICIiA iIgIiICIiAiIgIiICIiAiIgIiICIiAiIgKP6E7numvJVL6pqkCj+hO57pryVS+qagkCIiAiIgIiI CIiAiIgIiICIiAiIgIiICIiAiIgIiICIiAihusdYVVirrbZ7Pauyl5uXKGCnMwiaxrBlz3uPV4uG cHiuYJdsBAPIaLBPUTU8P2oLFRV3ym2L6HRXnqfanKbYvodFeep9qCxFH6zuh2byVX+tpFG+U2xf Q6K89T7VpS0O1iS801zLNH8vT080DGg1O6WyOjc4kdOcxNxx6z09QWiirvlNsX0OivPU+1OU2xfQ 6K89T7UFiIq75TbF9Dorz1PtXwy7YACeQ0WSOoGp4/tQWKihujtYVV9rrlZ7xauxd5tvJmenEwla 9rxlr2OHV4uOMjipkgIiICIobrHWFVYq622ez2rspeblyhgpzMImsawZc97j1eLhnB4oJko/rvue 6l8lVXqnKNCXbAQDyGiwT1E1PD9q1LrQ7WLxZ6211DNHtgraeSnkdGakODXtLSQTkZwe8UEs2f8A c6035Mp/VtUkVW2i37WLLZqK1UzdHugo4GQRulNSXFrQACSMDPDvBb3KbYvodFeep9qCxEVd8pti +h0V56n2pym2L6HRXnqfagsRFXfKbYvodFeep9qcpti+h0V56n2oLERV0ZdsABPIaLJHUDU8f2rp 6O1hVX2uuVnvFq7F3m28mZ6cTCVr2vGWvY4dXi44yOKCZKP677nupfJVV6pykCj+u+57qXyVVeqc gx7P+51pvyZT+rapIqa0Rfdod40baBp6y2Wkt1NSMp2VFzne81JYNwua2PBaMtPAj7CpDym2L6HR XnqfagSfOIh+6/6kqxFULtPbUnaybqgjSfPm0HMBHv1HJ8nv7+cdO9k9/GOpdrlNsX0OivPU+1BY iKu+U2xfQ6K89T7U5TbF9Dorz1PtQWIirvlNsX0OivPU+1OU2xfQ6K89T7UFiIq75TbF9Dorz1Pt WlcNX690hTG5apsdorLQwtE89pme19OC4N3i2Qkv6RwGPGQgtFFhilZNGyWN4fG9oc1wOQQeghZk FdyfOIh+6/6kqxFTmsL1c7Lt0oTZrSLpcauwc3hgdMImg8tI8uc48MAMPDh9q7wl2wEA8hosE9RN Tw/agkuu+57qXyVVeqcsez/udab8mU/q2qJ3Wh2sXiz1trqGaPbBW08lPI6M1IcGvaWkgnIzg94r zaLftYstmorVTN0e6CjgZBG6U1JcWtAAJIwM8O8EFpIq75TbF9Dorz1PtTlNsX0OivPU+1BYiKu+ U2xfQ6K89T7U5TbF9Dorz1PtQWIirvlNsX0OivPU+1fDLtgAJ5DRZI6ganj+1BYqKG6O1hVX2uuV nvFq7F3m28mZ6cTCVr2vGWvY4dXi44yOKmSCP677nupfJVV6pyx7P+51pvyZT+rasmu+57qXyVVe qcsez/udab8mU/q2oJIq7k+cRD91/wBSVYiruT5xEP3X/UlBYij+u+57qXyVVeqcpAo/rvue6l8l VXqnIMez/udab8mU/q2qSKN7P+51pvyZT+rapIgIiICLWq6qCgop6yplbFTwRullkd0Ma0ZJP2AK uqbVGt9as5fSttpLRZ38I7lc8ukmGflRxDo/82Qe+gs5VltoooblZtM0FSCYKrUVLDIAcEtc2QHB 6uBWf4ur9cO2ve0S/SvPSLfu0bfsw3IKO2NacqAzshXXu4OYQ5r6u4PcQ7vjGMFB4j0trzTLWxaa 1LTXShZ2rKO+Rkujb3hKztneIHAAWQat2gUR3bhs9M4HAzUNzjcHHvhh4gfasp2OaU//AIp6Ql9q xHZRDC4mg1fqyjI6Gx3IlufGC3j1daD6dp1ZEd2fZ9q8P6f4qg5QY+0H9i+t2n1cpDIdn+sC8/S2 /kx5ycLG+w7SLL29q1VSXqJnRS3alEbsd7lGcXO8ZwF1dI62ffq+qs11tc1pv9EwST0cjg9r2E43 43jg5uSPOOJ6UHMdrHXlWSLfs6lY1w7WStuUUe79rMZ73X31iksG0jURMd51HQWSidwfDZY3OleM 9HKP4sPjaT9ispEFYbI7VTWSfVtrpN809JdjDGXuy4gMaMk99Weq/wBnH9YddeXH/wCkKwEBad1/ oit/8PJ/pK3Fp3X+iK3/AMPJ/pKCLbI+5Xp//kO/1uU1UK2R9yvT/wDyHf63KaoCIiAiIgIiICIi AiIgIiICIiAiIgIiICIiAiIgIiICIiAiIgIiICIiAo/oTue6a8lUvqmqQKP6E7numvJVL6pqCQIi ICIiAiIgIiICIiAiIgIiICIiAiIgIiICIiAiIgIiIK6lAP8ACHhzg40wSPF/KSrFVdyfOIh+6/6k qxEBQNlw1TdtZ6ioLbdLfSU1qkp2MiqKB03KcpC15y4SNI4k9AU8UDbQaps+sdRXG2Wigraa6yU7 43zV5hMfJwtYctEbs8QetBtW/Wb49OXqtvlKylrbHJJFXRxP3mPLWB4dGTx3XhzcA8cnHjWrp27a nvVvuFpuFRSW7UdG+GR0gpTLHyUrQ9vaFzckHfYePSzK0ZdC3avtrKK5VUbjdLpz+9TUzyzDWNHJ wxcN4gOZH23A9qT1rqUujJ7LrC33i2VlZUxPhkpbgK+skneY/lRlheT8l4PDvPKDX0jW6qu1zuZr r1QvpbZc5KGSKO3Fjpw1jXbwdyh3Pl9GD0dPFfdL6xrrtqR0dbHCy13OOWayvaCHPZDIWP3s9JcC 2RuP7JK8/Bq/U1g1dRUUkEdXeblLNBKZDiKGVsbC49e8A15AHXjisdXs5bbobVV2GtuTq20zRPpY auvkfFyYIbIwNdkNzGXAYA6hwCCw0REFdOAb/CGYWjG/pnLsdf8AKT0+YeZWKq7k+cRD91/1JViI CIiAq6lAP8IeHODjTBI8X8pKsVV3J84iH7r/AKkoLEREQEREBERAREQFXTgG/wAIZhaMb+mcux1/ yk9PmHmViqu5PnEQ/df9SUFiKP677nupfJVV6pykCj+u+57qXyVVeqcgw7PcDZ1pwAYHY2A/+gKT KN7P+51pvyZT+rapIgIiICIiAiIgKOa9a1+z3UocAR2LqTxHWInEKRqP677nupfJVV6pyDHs/JOz vTeeP+zKf1bVJFG9n/c6035Mp/VtUkQV1KAf4Q8OcHGmCR4v5SVYqruT5xEP3X/UlWIgIiICIiAi IgIiIK6cA3+EMwtGN/TOXY6/5SenzDzKxVXcnziIfuv+pKsRBH9d9z3Uvkqq9U5Y9n/c6035Mp/V tWTXfc91L5KqvVOWPZ/3OtN+TKf1bUEkVdyfOIh+6/6kqxFV10utus+3uGpudfTUUB01uCWpmbE0 uNS4gZcQM8Dw8SC0VH9d9z3Uvkqq9U5Ph3pD612P0jD+8oltB2g6ek0ncLRabnS3W63OndSU9LRS csXGTtDxZkAgOJwSM4QSnZ/3OtN+TKf1bVJFyNN2t1l0zarVI8PfR0kUDngYDi1oBI/ELroCIiCN bQe51qTyZUerKgOkGbQtOaPs89vjotS2qahhmjpZJOQqYA5gduNectLW5wM5PDgB0Kf7QO51qTyZ UercsmhO57pryVS+qagjQ2qso3bl70jqW2uHy5DR8rCPse08fwHUvTdtmgTkSXl8ThwLJKKfIPe4 MKsNY3RsfjeY12OjIyggfx27PfrD/wD2VR//AI1i+ObSs4PYtl0ur+gR0VBI5xPe7YDxedWByEP0 Uf8A8oWVBXB1rrK9jc07oWqpmv4Crvcgp2s8ZiHbOH2FcTS9tvlu24vOobrHcbjU2AzvdFHuRxAz hojYP7o3c5wM5ORnibiVdyfOIh+6/wCpKCxEREFf7OP6w668uP8A9IVgKv8AZx/WHXXlx/8ApCsB AWndf6Irf/Dyf6Stxad1/oit/wDDyf6Sgi2yPuV6f/5Dv9blNVCtkfcr0/8A8h3+tymqAiIgIiIC IiAiIgIiICIiAiIgIiICIiAiIgIiICIiAiIgIiICIiAiIgKP6E7numvJVL6pqkCj+hO57pryVS+q agkCIiAiIgIiICIiAiIgIiICIiAiIgIiICIiAiIgIiICIiCu5PnEQ/df9SVYiruT5xEP3X/UlWIg LkvvlJFqOKySmSKrmgM8Be3DJmtOHBjutzcglvTgg9CzXXspzT/Y/M+dbw/ne9ubvX8njnoUI1nB V6p5hpWmkjhvrGtram4U++G0AAIy05By85YGk/JLiehB3ptcWtlrnuMUVXUU0VcKFj4Yd7nEpcGY j49sN47uejIOM4Rus6dtJW1dTZ7zRU9HTPqZJKmk3AWsGSBx4ux0DxKH1dZzzQNptVJFFarnbLxQ UM1MWb7aWZszA127kb7DweDntgenOV2NT0OoaXQ2p33a+0ldB2KqA2KG3mnIduHB3uUdkYyMY6+n gg69JrNldJTtj0/f2Mnc0NlkosMAd0OJ3uA45ysTteUZra6ngtF7qhRVDqaeWlozIxr2gEgYOTwI PAZ4ri2C+2lotodtNbUHdjbzJ0lEA84A3O1jDunhwOfGuZbqLVE0OuJ9NXdlLURXqpMdM6lZJysg jiPy3dBI4DhjPTlBZVputHe7XT3KgmE1LO3McmCMjODkHiCCCCD1hdJRfQfYz4F23sQ6d1IWFx5w cyiQuJkEnAdvvl2eHT0cFKEFdyfOIh+6/wCpKsRV3J84iH7r/qSrEQEREBV3J84iH7r/AKkqxFXc nziIfuv+pKCxEXG1FfINPWd9wmjkmIeyOKGPG9LI9waxgzw4kjj1dK5lHd9VsraMXPTdKylqpNxz 6OtMz6XIJBkaY2gjPAlpOMoJYij/AMMtPdlexnZSHnXLc3xh25y2cclymN3lM8NzO94lhqNdaapK h9PPdoo5I6k0su81wbFJ3nuxhgPU5xAPHBOEEmRRp2uNOR0VdWOujBTUD421LzG/+L5Rwaw4xktc TwcMg8TnAK9s1np2anuE0V1ieyghNRUbrXEiIDPKNGMvZjoc3IPUUEiRcWu1JbLc2E1M78z08lTG 2OB73PjjDS8gNBPDfbw6ePiK5VFtCsUumrbeayofQtrg3koJYpOUe8gEtY3d3pAN4ds0EHvoJeq7 k+cRD91/1JU1tlyo7xQxV9vqY6mklGY5YnBzXccHj3wQQR1EKFSfOIh+6/6koLEUf133PdS+Sqr1 TlIFH9d9z3Uvkqq9U5Bj2f8Ac6035Mp/VtUkUb2f9zrTfkyn9W1ak+pbxXXystenbVTVQoHNZVVd bVGGNshAdybQ1jnOO6QScADOEEvRRuLVDKSyCv1HT9hpRO6nMD38ryjwTu8kWjMm8BkANyePDgvY 1np3sbHcTdYG0jqgUpkflvJykZ3HgjLDjp3sY60EhRRU7QtLNhkkddmMEcvJStfFI10R772luWN4 jtnAN4jis1drjTltr6yiq7oyKqonMFRGWPJjDmhwccD5OHNy75IyMkIJIi5lPerfV3J1BT1LZaht PHVYYCQYnkhrg7G6QS09BXFg17Z6u92m20hqahtypXVUM7KWXd3d5obntOAO8ck4Dd3jjIQS1R/X fc91L5KqvVOXm36105drp2NorvTz1RLmsawndlLRlwY4jdeQOJDScDpXrXfc91L5KqvVOQY9n/c6 035Mp/VtUkUb2f8Ac6035Mp/VtUkQV3J84iH7r/qSrEVdyfOIh+6/wCpKleor5Bp6zvuE0ckxD2R xQx43pZHuDWMGeHEkcerpQdlFE6O76rZW0Yuem6VlLVSbjn0daZn0uQSDI0xtBGeBLScZW58MtPd lexnZSHnXLc3xh25y2cclymN3lM8NzO94kEgRRmo11pqkqH0892ijkjqTSy7zXBsUnee7GGA9TnE A8cE4X12uNOR0VdWOujBTUD421LzG/8Ai+UcGsOMZLXE8HDIPE5wCgkqKOs1np2anuE0V1ieyghN RUbrXEiIDPKNGMvZjoc3IPUVsV2pLZbmwmpnfmenkqY2xwPe58cYaXkBoJ4b7eHTx8RQdpFEKLaF YpdNW281lQ+hbXBvJQSxSco95AJaxu7vSAbw7ZoIPfUgtlyo7xQxV9vqY6mklGY5YnBzXccHj3wQ QR1EIIVJ84iH7r/qSrEVdyfOIh+6/wCpKsRBH9d9z3Uvkqq9U5Y9n/c6035Mp/VtWTXfc91L5Kqv VOWPZ/3OtN+TKf1bUEkVW3e0W29bfIaW6UNNWwt03viOoiEjQ4VDgDg9eCfOrSVdOId/CGYGnO5p nDsdX8pPT5x50Eh+L7Rv1Vs35KP2LdtmmrJZZHvtVnoKJ7hhzqanZGXDvEgZXXRAREQEREEb2gdz rUnkyo9W5ZNCdz3TXkql9U1Y9oHc61J5MqPVuWTQnc9015KpfVNQSBERAREQFXcnziIfuv8AqSrE VdyfOIh+6/6koLEREQV/s4/rDrry4/8A0hWAqZ09oui1PqvWlRVV90pnRXh8YbRVboWkboOSB0lS N2xvSs4IrTdK7e+Xzmvkdv8Aezgjo4eZBMLhf7NaW71yutFRj/8AcVDGf5lQS87T6S8w1Vm0VR1N 9uc0bohJDEW08BcMbz5HYGBnPeOMZC6kWzDQ1kpJqiDTNHKYmOkxUl02cDP9suUg0vWQ3HS1rroK OKiiqaWOdtNEBux7zQ7dGAOjPeCDDo6xv03pG12eV4klpYAyRzTwLzxdjgOGSceJSBcqO+2uagoa 6OsY6lr3sZSyYOJXO+SBw68HpWpDrHTtRcn2+G70z6tsr4TGHcTI0Zc1vU5wHSBkoJAih9BtF03V 2l1zmrTR0zamSmD6ljmBzmF/QSOtsZdjp6jx4Leq9aabt9TBTVV5o4JpmiQMkkwWscAQ5/8AcByM F2MkgdJQSJFy77czZtO3K6tiE3MqSWpEe9u7+4wuxnjjOOlRb4b3igp7PXXmwU0NtuckMTaikrzK 6F0uNwvY6NvDjxIJx40E9RcCfV+n6a9Gzz3aBlfvsjMRz2r3fIa52MNc7qBOT1LIdUWMXx9m7Jw9 kmE79Pk7zcMDyT3hukHPR+KDtoo3Razsd2jquxNygqp4IXzBgyN9reBc3IG83OBvDIzwyuTp/XMt zr6OOujpqWml0/DeJpi4tEbnucHAknAaA3OSgnSKJVOubPUacvVxslxo6+ot1HPU8i1/TuNcQcdJ aSMbw4HqK71prHXCzUNa9oa+op45XNHQC5oJA86DfREQEREBERAREQEREBERAREQEREBERAREQER EBQ2xU+rrLp+2WrsTZJuZUkVNyvZaVu/uMDd7HNjjOM4yVMkQR/nmsPAdj9My+6pzzWHgOx+mZfd VIEQR/nmsPAdj9My+6pzzWHgOx+mZfdVIEQR/nmsPAdj9My+6pzzWHgOx+mZfdVIEQR/nmsPAdj9 My+6pzzWHgOx+mZfdVIEQR/nmsPAdj9My+6pzzWHgOx+mZfdVIEQR/nmsPAdj9My+6pzzWHgOx+m ZfdVIEQR/nmsPAdj9My+6pzzWHgOx+mZfdVIEQR/nmsPAdj9My+6pzzWHgOx+mZfdVIEQR/nmsPA dj9My+6pzzWHgOx+mZfdVIEQR/nmsPAdj9My+6pzzWHgOx+mZfdVIEQR/nmsPAdj9My+6pzzWHgO x+mZfdVIEQR/nmsPAdj9My+6pzzWHgOx+mZfdVIEQR/nmsPAdj9My+6pzzWHgOx+mZfdVIEQVbRS 3KXb6w3Kkpaaf4NkNZTVLp2lvODxLnRsIOc8MdQ48eFpKu5PnEQ/df8AUlWIgLGNzfdjd3j046Vk VU3qKuo9pV71JbmyzTWqiojPSs484pnmblWgf3xuNe3xsx1oLSwzfccNJyM8OOepeiA4EEAg9IKq 9mozS3HUdbZZYJJLpd7dTUk8jS6ICamgAeQCCQGkkDIycBbVz1XftNuvNtq56SvrYKakmoajmxia TPO6HEoDiO1dg8MZGUE93qQVQpgYRUbnKCPhvboON7HTjOBlbAaBnAAycnCqa6XO66Y2gV1wuNRT 3Cah0lPPG6OAw75E7ODm7zuG8OkY4Ho4ZPY0tqXUdVqOlorjFPV0dXA+V9QLLU0baWUYIZvScHMI zgnjkeMILBDQ3O6AMnPBe0RBXcnziIfuv+pKsRV3J84iH7r/AKkqxEBERAVdyfOIh+6/6kqxFXcn ziIfuv8AqSg7eubNWXmwxG2tY+4UNZBXU0cjt1sj4nh26T1ZGR9uFio9Q366VlJBBpWst45Uc9nu D4xHGzGXCPceXPceABwBx49GFLkQVabNe/g18EOxVbyvZXnPZbfi5Lkeecvyud7e393hu7uc+Lis 9fpisqNKamouxznyV+oGVXJnB5WHl4SXdPRuMd5lZaIKm2lWirlj1VVupg6jqLTRwxuee1fK2pcc HBzw3m8fGt+9Wm86rrbrIyzz29rbDVW2PnMkf8dPKWEBu649oNz5Rxxd0cCp/cKCluVFJR1kImp5 Mb8bs4OCCOjxgLbQV1HTXm83uySyWWroIKW2VlLI+pdHnlXiIDgxzu1yw4PXg8MYzx4LJfKe26Sr ZLfeYnWm3SW+rgoXwidjsR4kYHEh7TuEHBz0cOlW6iCMaKtjrVp9zDR1VG6eolqHQVczJJGlzskk sG6M/KwM4zhcKT5xEP3X/UlWIq7k+cRD91/1JQWIo/rvue6l8lVXqnKQKP677nupfJVV6pyDHs/7 nWm/JlP6tq4VP2W0dqC9llirrpa7rV8+iloHMdJFK5rWvY9jnN4ZaCHAkY6etd3Z/wBzrTfkyn9W 1SRBAq9mpKySyX6rtD9+3XCaV1sp5WOk5B0L42ucS7ddIN7OGnGHEDJXOOn7rcq+S6T2ypp46zUN FWNpJnsLooYYmt5Rwa4gEubkjJPAZVnIgru6aerZ4No7oaEvnusLWUpGMzhtI1gA+x+8OPWuZSPr rZqnVoprFU3CaqoaGFwp3MDhKIHNAfvOGG8RlwzjHHqVrrThoKWnramsihDaiq3eWeM5fujDc/YE ECslovGk7rbj2Lmr96w0luL6d7N2OeEvLt8ucCGYcMOAPRjGcA6+nbDd7a7SPOKGoYI7JNbql0Ra XUsjnRkOcCejtTxGeIVoogqbTOmrhBLp213O233lbQ9rzO6pg5nEWtc0OjI7dwd0buAQHccYU513 3PdS+Sqr1TlIFH9d9z3Uvkqq9U5Bj2f9zrTfkyn9W1SRRvZ/3OtN+TKf1bVJEFdyfOIh+6/6krt6 5s1ZebDEba1j7hQ1kFdTRyO3WyPieHbpPVkZH24XEk+cRD91/wBSVYiCI0eob9dKykgg0rWW8cqO ez3B8YjjZjLhHuPLnuPAA4A48ejCjZs17+DXwQ7FVvK9lec9lt+LkuR55y/K53t7f3eG7u5z4uKt JEFaV+mKyo0pqai7HOfJX6gZVcmcHlYeXhJd09G4x3mWjtKtFXLHqqrdTB1HUWmjhjc89q+VtS44 ODnhvN4+NWytS4UFLcqKSjrIRNTyY343ZwcEEdHjAQQC9Wm86rrbrIyzz29rbDVW2PnMkf8AHTyl hAbuuPaDc+UccXdHArLHTXm83uySyWWroIKW2VlLI+pdHnlXiIDgxzu1yw4PXg8MYzYqIKigsl8p 7bpKtkt95idabdJb6uChfCJ2OxHiRgcSHtO4QcHPRw6VNtFWx1q0+5ho6qjdPUS1DoKuZkkjS52S SWDdGflYGcZwpOiCu5PnEQ/df9SVYiruT5xEP3X/AFJViII/rvue6l8lVXqnKAaRftSGjbL2Ni0m aHmMPNzUGo5Tk9wbu9g43sYzjgp/rvue6l8lVXqnLHs/7nWm/JlP6tqCPF22BzS0s0YwHhvDnPDx 9K6ejtH1VirrleLxdeyl5uXJieoEIiaxrBhrGNHV4+GcDgpkiAiIgIiICIiCN7QO51qTyZUercsm hO57pryVS+qase0Dudak8mVHq3LJoTue6a8lUvqmoJAiIgIiICruT5xEP3X/AFJViKpNS3W4Wjbp BUW2yz3ac6dDDTwyNY4NNQ4l2XcMDAH4oLbRV2NS7Sq4blLoOjt5I/3tbdWSNB/wsAcsb9J681F2 uo9VwW6jPB1HYoiwvH/Nf2w+ziEGXZtIyW964ljcHRm+SAOacgkNGeKsNcG0Wex6J0+6mooY6K30 rHSyvd14HbPe7rOBxJ6gOoBYKHXmlLnXR0dDfqGoqZTiOKOXLnHGeA+wIOzcWOktlUxjS574Xta0 dJJB4KH6IvU9Hp6xWOq09fIKiClhppZZKTETXNaASXZ6MjpwpJR6itddXU9DDUPNVUUhrY4nwSMc YQ4NLjvNGOJAwcHxLsIKottHfI9OaQsb7JWRyWm5QNrJntHJ7jN4BzCDlwOWnOMAZBwVnoKK6UGo qSCzW+60sL7k6avoa6NklFFG4uLpYZcZa4nBDWu6XcWjirQRBVlqslc5lioKq2VLexuo6qqle+Pt CxwqHxyNd0EZczj1EhampNM17r9qVtRBqWejvD4zEy1Gm5OZvJMYWSGRpLC0tOCSBjo49NrzSx00 L5ppGRxRtLnve4BrWjiSSegAL2yRsjGvY4Oa4ZDgcgjvoI3frZP8W10tVO2epqOxEtNG15DpJHci WgEgAFxPeHSufYtB21tFZaq59kaqrpIoZY4aytlkjgmawDLYy7dBHHq4KcIgp3U1s1TeKbUtK22X Bsor2T08NM2GOlmgY5jmuLj28krtwnGeB3RwHTIbbS3Jr9cXamszud3ARPpIKxgby+KVgax2eHBx c0jOM5GetTSvuFHaqGWsuFTDS0sWN+aZ4YxuTgZJ4cSQPtK07Xqay3x8kdsudPUyxtDnxsf27Wno JaeIHjwgrmhob/2SsdxqLfep4hbZ6GfnMcLORlexnFsUeNyPLMZ+zq4nTOj79X2g0UVJUU8z9GU1 ECQGgzslc50JLuAJHA56A5XHT1ENTTRVEErJYJWh8cjHBzXtIyHAjgQRxythBTz9PVNfT6gq20uq Za4WGpoY3XRtO1ry9uRCwRsBfhw4EHdz0ZyrN0/DLTabtcEzHMljpImPY4cWuDACD+K6iICIiAiI gIiICIiAiIgIiICIiAiIgIiICIiAiIgIixSF7Y3FjQ54BLWk4BPUM9SDKihdhvt2jdqcagmp5X2m RrsUkZaxrTTslLRni7G8Rk9OM4HQNC2al1A2n05eLpUUMlvv8kUfNYYCw0nKxl8RDy47/EBrsjpc MY6EFhoq/t9z1FqqilvlHfKKz2h00kdEx1KJjK1jyzfkc5w4OLSQ1uOBHE9f3UGobrb7Fp59ZebX aqirrOb1ldDianYBFK7LTJjGXMb09GcZPSQn6KrbbrO7y2bWssNzprtT2iidNRXaCm5Nr5eSe8sI yWv3SG8W8OPHpWbT+oH14tck20u0yz1Bic+gbHTB73OxmIYdvZJO70ZygsxFH9YXO42fStfX2umF RWQtBYwsL8AuAc7dHF260l2B04wuNpq71lyr4JKLVlqv1tMRdVs3GxT05x2pa1nUTwLXgEDrJ4EJ yiiVr1vTXiqp2U9su0VFWCR1JXvpxyE4aMk5BJZkZLd8Nzj8Fr0+t4GWuztpaK8XerrKCOs3IYYz K2Ij/eScWsBODgDpIIAQTVFEWa8tlS20G3U1bXuu0Es9IyBjQXcmWhzXbxAae26XEDtTxzjL4d0M tsoqiChr5aysqZaSK3Nazl+ViLhIDl24A3dJJLsYx30EuRRF+uaYW6imjtF4kra2R8UVu5tuVG8z 5W8HENDRkZdvY49JXWsF+pNRUMtTSMniMMz6eeGdm7JDK09sxw4jI4dBI4oOwir601Wqr9cdQyUl +p6aOguktFBTy0DZWFrWscC4hzXf2iOnq6+hcu7bQL3HZrPWU8MEVXFcqmmu1Mw77XNpmvfMIyRk ZbGS3r4gcUFqooDrPVldb7pYaOyvjc2oqIJqyUgOApnzMiaB1Ze6TIPThjl41lUaktUkfYvUe9X3 CfkrdbRQRu3ndJy48Qxrclzj0DxkILBRalDHUQ2+njrJRPUtia2aVrN0SPAG84N6snJwttAREQER EBERBXcnziIfuv8AqSrEVdyfOIh+6/6kqxEBc6C1U1Peq26MD+cVkUUUuT2u7Hv7uB/53Z/BdFEE SpNnun6W23Kgggljpq6pbVuZHM5hikaQWmMtwWbpaMAHhjHRwWZmibU+juNPXPrLg+4sZHUz1VQ5 0j2sJLAMYDN0uJG6Bx49Kk6IInTaDtMVXNVVUtfcKme3vts8tbUukMsDiCWnox0f2cdJPEklbVn0 pTWat50y43WqLI+Rhiqqt0jIWcO1a3r6BxdvHxqRIgIiIK7k+cRD91/1JViKu5PnEQ/df9SVYiAi IgKu5PnEQ/df9SVYiruT5xEP3X/UlBYiIiAiIgIiICIiAquul1t1n29w1Nzr6aigOmtwS1MzYmlx qXEDLiBngeHiVoqrbvaLbetvkNLdKGmrYW6b3xHURCRocKhwBwevBPnQTL4d6Q+tdj9Iw/vKG7St pOmYNF3ShoLvRXCuraWSnihpZRLweN1zi5mQ3DSTxIzhS74vtG/VWzfko/YubqfTdjsmgdTyWuz0 NC91pqg51NTsjLhyTuBIGUHS2f8Ac6035Mp/VtUkUb2f9zrTfkyn9W1SRAREQEREBERAUf133PdS +Sqr1TlIFH9d9z3Uvkqq9U5BHtE6x0xSaEsFPU6ktEM8VvgZJFJXRNcxwYAQQXZBHeXedrzSDWlx 1VZMAZ4XCInzByj2iNE6Vq9CWGqqdOWqaea3wPkkkpGOc9xYCSSRxJKkA2f6OByNK2b8lH7EFf6Y 1XRav291VbbXGShgsZpoZt1zeVAla4uw4AjtnuH/AJVcirgRRw/wgYIomNZG3S2GtaMADnJ4AKx0 BERAREQEREBERBV10utus+3uGpudfTUUB01uCWpmbE0uNS4gZcQM8Dw8SmPw70h9a7H6Rh/eUNu9 ott62+Q0t0oaathbpvfEdREJGhwqHAHB68E+dS74vtG/VWzfko/Ygi20HaDp6TSdwtFpudLdbrc6 d1JT0tFJyxcZO0PFmQCA4nBIzhTbTdrdZdM2q1SPD30dJFA54GA4taASPxCWzTVkssj32qz0FE9w w51NTsjLh3iQMrroCIiAiIgIiICIiCN7QO51qTyZUercsmhO57pryVS+qauvW0lPcKCooqqMSU9R G6KVh6HNcMEeYquaXT+u9Ds5tpyro77ZIs8jQV7jFUQtycMZJ8kjxu4DoACCz0Vd/GXcqDtL3oHU dNIPlOo4W1cTR399pAX07Z9IQcK6W4UDujdqaCVpz3uAPFBYaKu/jt0F0C8SuJ6AKObJ+ztV6O1y 1S/0dYNTXIno5pbHEftISyzyLCVdyfOIh+6/6kry7U+0K9Ex2TR0Nrice1q71U4x9sTO2B84XR0l ouos90qr7fbo+66grIxFJU7m5HFGMHk42jobkZzwzjoHHITVERBG9oHc61J5MqPVuSiqNUERCut1 phpuTO/LT3CWSQdrww0wtB44/tBduqpIK+jmpKqJk1POwxyxvGQ9pGCD4iFm3W7m5gbuMY8SCi6S 83SlpaO9RTy1Fyj0LPOJ5Xb7t8TMO+S7O8R08enCktnjv9rryZb8IaOptk0r33K5sqnB4ALaloLW 7rG5w4AhuMdfFT6lsNqonwvprfTxOhpjSRlrB2sJIJYP+HIBwsVu0vYbRLNLbrNRUj52lkjoYGt3 mk5LeA6M9XQgru1UV346fuN0vtLeLhbJubVbbpzilqJG7p5aNww+Mguad0bo3Tjj17VJqC4aujNX BcuxPYuyyCrlfKY4orhICzEgPAiLk3u45xvtKmcGmLZZ2Tz2C2W6ir3RGOOYwdq0HjundIO5kAlo I6F50/piGz2itpql0dZLcKiWqrnui3WTPk+UNwk4bjDcEngOOUFb3BtVS6Y1HZbvUX6K4CwS1O5P cucU9QGcHSskHbjLiAWHdaWuxukLeq4brLebdp+31dyFDT2aOtYWXYwvfI57wXOkcHOeG9rhud0c MjGArCt+lrFaxUNobRRU4qGcnKGRDt2f3T/w8fk9CwyaN03Lbaa3yWOgfR0u9yEL4GkR7xJdu56M knPfQRO2m83is0rQ3S+yOdNa619ZJbKrEdVuyQtY4PZjBw7O83BByAcE50LLLd6ey6Yuc19uNVUG 9PtsomlJZLAJJYsOYODndo12+7Ls544VmwWygp300kFHDG6lhMEG4wN5KM7uWNA6B2jeHiC8Ms1u jp4KdlFCIYJzUxMDeDJS4uLx495zj+JQcXW9DRXK0UlJVXRtrqHVsL6CpeN4Cpa7eYC0kB+cHtT0 /aFwquqruzstm1DS2+auqrVUvprlbN+KVkbd3eY4ElzASQQ4PwSMKd3G3UV2o30VwpYaqlkxvxTs D2uwcjIPeIBWnadL2KxSSPtVppKOSRoa+SKMBzmjGGk9OOA4dCCAacp5Kqj0XYHXC40ttqLAa1xg rHsfPMBCNwPzvta0PJDWkDBA6Bha8dddbxWabtMt5uUdPNdbnRGrp6jk5KqCHfLCXNwM9pu72M8C RxOVYA0ZprsY23dgqA0bZDK2EwNLWuOMkd4nA6FvMstrjNA6Kgp4uYb3NBHGGiDeaWu3AOAyCRwQ VNrS/VFE3UF8s9xu7+xFTDTB8tx3KeOVu4HRtgHGXOcOL+snB4ZXav1fV1DtdVov9TRvs0AFDHBO GMYHUzZN5zQO333uIBOSP7ODxU3fpmxTVtXWSWihfU1cZjqJXU7S6VpGCHHHHI4HvjCjOpNAVV0m 3LVUWuipjRijYZLc189JH0EQyNIIBbwAOcccEZ4BHGSaiutTSW4XGuDaGwUdQ17LkKYySva8OqHk tLpMOaMhx3cjiDlWTpmatqNMW2W41EFTWup2ctPTvD45XY4vaWgAg9PDhxXiu0nYLlS0tPX2ijqo 6SNscHLxB5Y0DAAJ448XWutBDHTwsghjbHFG0NYxjQGtaBgAAdAQZ0REBERAREQEREBERAREQERE BERAREQEREBYJzMIZDC1r5Q0ljXu3Wk44AnBwM9eCs6IILZbVqVt+vU11ttrbQXmRrpxDXPe+INg bFgAxAOzujrGMnpwsdr0pfmN0/bblUW91rsD2SQSQNfytUWRujjD2ntY90OycF+SBjCnyIK4j0rq K00FXYqGh0/eLBLK+amhubntMBe8ybr2hj2vaHHIxgr7T6Ku1msNjhoWWuprKG5y3CaAl1NT/wAY yUFkeGvIa0yDGR0N6uhWMiCtpdE3u51ep7nWC2UNVdLRJbIKWie90biWnEkzyxpc4HgCG8G8OK6l pi1fb7fQ0LrFYnNpoo4jKLlJkhoA3gOQ6eGcZU1RByr1FdZbY8WWphgr2ua+Mzs3o34IJY7rAcMj I4jOVGBpy8XbV1tvV0obXbm0TJmymiqHzS1YkZu7jnGNmGDpwd45xjCniIITYLPqq0Q26yyzWs2W gp3QGZm+aipaG7sY3SA2PH9o5dnqxnhwZdmlQILJUTW2zXapo7PFbZ6aue9sYcziJGPDHHpLgQWj IxxCtREELs2l6y11+n6gQ2yGOhoamCeGjY9kbZJXxv8A4trsnGWOySc8c444Gm3R91o56e60Ro5b lSXWvq4opZHNjlgqXuJYXBpLXY3DnBGW46DlWAiCub1oq8aip7RcL5FZrjc6GScyUTw9lM+OQABj X7pcHN3WkOLTxzwUi0dYpbBZ3081Da6KWWd8pgtjHiJoOA3Jdxc7AGXYb3scMmSIggFDadY2Kqvw tdLZZo7lcpa2GaqrJWmMOaxoDmNjOfkdTutZLfoeot509ylTHWPpa2qrblPI3cNRJPFI1xDQMfKk Ax3gp2iCt6DQFypLXPTzVUE87a+iZSvLnYZQUszXxsPD5eN8nqJI4rPT2rV9Lqy6XuS3WiulmcYa J8lfJFzelB4MDeRdhzj2zjnicdQVgog1aR1S+kiNZFHFUloMkcUhe1rusBxAJHjwFtIiAiIgIiIC IiCupSB/CHhzgZ0wQPH/ACkqxVDdY6Pqr7XW28We69i7zbeUEFQYRK17XjDmPaerx8cZPBcwO2wN aGhmjHgcN4854+PpQWKirvlNsX0OivPU+1OU2xfQ6K89T7UFiIq75TbD9Dorz1PtWpJdNq8d1p7e 6DR/OJ4ZJmkc53d2NzGuyd7pzI3HDv8A4pLfAs9FXfKbYvodFeep9qcpti+h0V56n2oLERV3ym2L 6HRXnqfavhdtgc0tLNGMB4bw5zw8fSgOId/CGYGnO5pnDsdX8pPT5x51YqhujtH1VirrleLxdeyl 5uXJieoEIiaxrBhrGNHV4+GcDgpkgIiICrqUgfwh4c4GdMEDx/ykqxVDdY6Pqr7XW28We69i7zbe UEFQYRK17XjDmPaerx8cZPBBMkVdB22BrQ0M0Y8DhvHnPHx9K+8pti+h0V56n2oLERV3ym2L6HRX nqfanKbYvodFeep9qCxF8VYSXTavHdae3ug0fzieGSZpHOd3djcxrsne6cyNxw7/AOO5ym2H6HRX nqfal02YtFiIq75TbF9Dorz1PtTlNsX0OivPU+1BYirpxDv4QzA053NM4djq/lJ6fOPOhdtgc0tL NGMB4bw5zw8fSuno7R9VYq65Xi8XXspeblyYnqBCImsawYaxjR1ePhnA4IJko/rvue6l8lVXqnKQ LDLEyaN8UjA+N7S1zSMgg9IKCP7PcHZ1pwg5HY2Af+gKTKrbfpLX2jIBbtLXiz3C0NLuQp7tC9j6 cFxdgOj4v6TxJ+wBb3KbYvodFeep9qCxEVd8pti+h0V56n2pym2L6HRXnqfagsRFXfK7YfodFeep 9q1Lbc9rF3tdLcKaHR4gqoWTxiTnIduuAcMgOODg99MXGRZ6Ku+U2xfQ6K89T7U5TbF9Dorz1PtQ WIo5r1zWbPdSlxAHYupHE9ZicAo9ym2L6HRXnqfatG4aS19rOA27VN4s9vtDi3l6e0wve+oAcHYL pOLOgcQftBQS7Z+CNnem88P9mU/q2qSLDFEyGNkUbAyNjQ1rQMAAdACzIK6lIH8IeHOBnTBA8f8A KSrFUN1jo+qvtdbbxZ7r2LvNt5QQVBhErXteMOY9p6vHxxk8FzA7bA1oaGaMeBw3jznj4+lBYqKu +U2xfQ6K89T7U5TbF9Dorz1PtQWIirvlNsP0OivPU+1akl02rx3Wnt7oNH84nhkmaRznd3Y3Ma7J 3unMjccO/wDikt8Cz0Vd8pti+h0V56n2pym2L6HRXnqfagsRFXfKbYvodFeep9q+F22BzS0s0YwH hvDnPDx9KA4h38IZgac7mmcOx1fyk9PnHnViqG6O0fVWKuuV4vF17KXm5cmJ6gQiJrGsGGsY0dXj 4ZwOCmSAiIgIiICIiAiIgIiICIiAiJ1II/pntpLzIPkvuUuPwDWn9rSu/wBa4Olv5vcvKVT/AKyu 91rWv9w+oiLIIiICIiCN65vdXp/SNZX29sRrd6OGDlvkNfJI2MOd4hvZ/BRu4R0Wk6mjdX7Ra2mu RLZXi5TNkiqGb3bDkeAaDxALSCO+cKZ3+yUeorHV2ivYXU1Uzcfg4c05BDge+CAR4wFF6rRupLrb uxN41gKm1vyycQ21kU9RGf7LpN4gfa1oJQaI1LPZtX6xO6+rkfcLdSUVI+UtaZJYGjAODujpcSAe AJwVq661RdItIX631tIKK60Ioalpoal0jZopKlrcsJa1wOWOaQR19JypDXaFFbc71X9kHQz11XSV tM9kQJppadjWtJycPBwcjhwJHjWtdtn1VfrVeIrnet+4XJtNE6pgpeTZDHDLygbGzeJBJLskuPEg 9WEHQg1NdI73V2qvs0bKoUT66iZT1YeKhjSGlhLmtDH5c3rLe26eBK4EOvprzS3S2TNtsVYbRUVj HWy5tqjAWgNMcha0BrwXAggkcD3uPYrtE1V2kuctzvcks9TbpLdTvgp+S5CJ5Bc4jeO88lrckboI GAAtJ2z+4F9HO/ULWywW+W3SRw29kcD4XsA7VgdljgWtcTk53QAAOCDvaPlqJ9ntilEm/VSWqncH ykneeYm8XHpPHpUHstTVQutrL1ftQ2fUr542zivY6SjqXb2DGwAciA4Ehu6QQSOkhWFa7KbdpOhs bqmQ82oY6MzxExuO6wM3m4OWnhkceCjtVoy+3W2Q2S8aliq7Ux8bpCKEsqZ2scHNDpeUIzloy4NB Piyg2naru1Tcq1tnsHZCgoKzmlRKKxscrngAvMbHDdcG7wBy9pJyAOC+UWrbtcam/to7HHJT2iaa m3nVgY+omY0Oa1oLd1oIc3LnO4Z6CvlRpG4sudXJab/JbqCvq21lXTx0zTI54DQ4RyZG4HBgzkE5 zjGSvkuhTPp/VNpdc3x9nayWq5WKPBhD2sG6Rnth2nHoyCQg5FJtFra6C7UcUVmddYLW+4Q8yuXO YmBpw5kjms7V7ctOBkOz0jpW7Rauvr6W0W2C10tdfZ7YLhUB1WY4mxcGtO9yed95/s7oAIdxwMoz QFW+701xqr6C/sbLbKuCGibHFJC8cBG0H+LIdgk9tnAHAcFlj0XeKaC2z0uoYobxR0Rt7qvseDHN BkFu9EX/AC2luQQ7GSeGDhBrvu19k1xTNprUY6qex8q6jrKrcigeJgDvvYHgnjwwCT4uOJLpa+jU 2nKS7MhNOZw4PhLt7k3scWObnAyA5p444rXtWm5rfd6avluUtZJFbRQvfO3t5Xb++ZCc9fex+Kza SsJ0xpuntBqRUGGSZ/Khm5nfldJjGT0b+OnqQd5ERAREQEREBERAREQEREBERAREQEREBERAREQE REBERAREQEREBERAREQEREBERAREQEREBERAREQEREBERAREQEREDqUfrP6+WfydW+spVIOpR+s/ r5Z/J1b6ylV0+fqJAiIoCIiAiIgIiICIiAiIgIiII/Wf18s/k2t9ZSqQKP1n9fLP5NrfWUqkCurx CCIigIiICIiAiIgIiIPJ6FwtEf1E0/5Np/VtXdPQuFoj+omn/JtP6tqv8b8z1d9ERQEREBERAREQ EREDqUfrP6+WfydW+spVIOpR+s/r5Z/J1b6ylV0+fqJAiIoCIiAiIgIiICIiAiIgIiICIiAiIgIe hEPQgj2lXB9JXvb8k3OqAP2Suaf2ghSFRzRv9EVnlSv/AO6lUjWup+6pBERZUREQEREBERAREQER EBERAREQEREBERAREQEREBERAREQEREBERAREQEREBERAREQEREBERAREQEREBERAREQEREBERAR EQEREBERAREQEREBERAREQEREBERA6lH6z+vln8nVvrKVSBR+s/r5Z/J1b6ylV0+fqJAiIoCIiAi IgIiICIiAiIgIiII/Wf18s/k2t9ZSqQKP1n9fLP5NrfWUqkCurxCCIigIiICIiAiIgIiIPJ6FwtE f1E0/wCTaf1bV3epcLRH9Q9P+Tqf1bVf435nq76IigIiICIiAiIgIiIPi4FZ/Xyz+Tq31lKu+uBW f18s/k6t9ZSq6PIkCIigIiICIiAiIgIiICIiAiIgIiICIiAvh6Cvq+HoKCO6M/oaqPUbpXkHv/yq VSJR3Rf9Xn+UK7/u5VIlrqfvvzSeH1ERZUREQEREBERAREQEREBERAREQEREBERAREQEREBERARE QEREBERAREQEREBERAREQEREBERAREQEREBERAREQEREBERAREQEREBERAREQEREBERBH+ear8CW f0tL7unPNV+BLP6Vl93UgRa3Tgwj/PNV+BLP6Vl93Tnmq/Aln9Ky+7qQIm6cQwj/ADzVfgSz+lZf d055qvwJaPSsvu6kCJunEMI/zzVfgSz+lZfd1zpodVy32jufYqzgU9NPT8n2Ul7blHROznm/DHJY xjjvdWOMxRJqk8Qwj/PNV+BLP6Vl93Tnmq/Aln9Ky+7qQIm6cQwj/PNV+BLP6Vl93Tnmq/Aln9Ky +7qQIm6cQwj/ADzVfgSz+lZfd055qvwJZ/Ssvu6kCJunEMI/zzVfgSz+lZfd055qvwJZ/Ssvu6kC JunEMI/zzVfgSz+lZfd055qvwJZ/Ssvu6kCJunEMI/zzVfgSz+lZfd055qvwJZ/Ssvu6kCJunEMI /wA81X4Es/pWX3dOear8CWj0rL7upAibpwYQ6aHVct9o7n2Ks4FPTTQcn2Ul7blHROznm/DHJYxj jvdWOPR55qvwJaPS0vu6kCJul9DCK1961FbaGatrLVZoqaFu/JI66y4aB0nhTLlUOvK25VcVJR0V olnlzuN7IVAzgZ6TS46AuttE47PL6f8A9m//ACXu1S6pdNA24UVojpN3t309VI+Qdrww0xgdOOvo yu+nT0/yt9nfNnn4RLnOHBo9oslbJFHAywb0xDYt+7ysEhPABpdTAE+ILZuetrhZq5tFXUdmjqXR iUR9k53HcJIB4Ux4ZBH4Ln2yrtEOxSjF3dCaV1tDXMeRl7t3gGg9Ls4x15wtCyx3+HVdvigZTdkW 6YpWzitL+1IkdnOOJOeldr0eluvbtMzz5x8f8TNSq1alvN6p3VFuoLHUxsduPMd3kJa7vEc3yD4i tO5a4r7RXGirqOzR1IYHmMXKdxDTnBOKY46CmgWzVVVfbrcnsju81U2CspImFrKfkgWsAySXbzSH b3XkY6F8uzKik1He622agtlNWOoYnPpaunJLWx75a4u3xhpLiCd044daxOn051Lps7T/AD17/XBm 4yy1us7hbaOlq6ylsUENU3fg37tKHSNwDkN5tnABBPDhnjhe6nVlzo7THdail0/FQSgGOodeZA1+ eIweb8c+JR6jq7lfdVWu5uqobbJXaebJEXR8puvMm8/ca444gsJ6TgD7R4pLrBUXXRdzvEVLTUvJ 1kUMjG8nTioDg1rhngA5rXFuePHgtT8Pox3+Oe/wtx9jNSG1azuV55Rtvo7HO+Ju9JGLtK17B3y0 0wIH4Lctt91DeLdT19HaLRJTTsD43m6StyD0HBpshc995lbrqKiqqKzPmlhnbDUU05fUxwtG8N8F g3QeHAEjOVGdMP5hpjRdfQ3SpmqqmpZSzQGocY3RYfvt5PO6NwDO9jPDieKl6GnZukx4x68+xnum sF91BUVtVRxWm0OqKQtE47KS4YXDeAzzbGcYP4jvrHZIdV2exW+2dirPNzOmjpxJ2Ukbv7jQ3OOb nGcZxkqOilr7rp6Cvoq1sVTdrrLWmmdWupnVkADmsY2RuXD+LZGeHe6lKND1baizVMIfcTLTVckE sdwmEz4njBLBIPltGeBJJ44zwwOevpzRpuJPPf5rLl8pL7f7g6pbS2uyymmmME27dZe0kABLT/Ju 8R50uN91BarfNXV1qs8NLAwvkkN1lO6B4hTZP4KHwvqg+6Q0tXNSum1iI3vidglhYzeH4jvrU1TC 6Ki1daudVslLRT26eAS1cr3MMr9143i7JaeJwSQCc9IGOvS/D6deuT07feyf2ltwnFDqDUdwc8Q2 KgAYGOJmrqiLIc3eGN6lGeB4948Dg8FsVV11PSU7p5bHa3MbjIjuUz3cTjg1tMSelQq41FdS3K/U NLca2GOC6Wqngdy7nujY5sYOC4nOc5Oc568rbvJq7LPqSjpa6uNO2jo6lhlqnyOikfM9rt1ziSA4 N4jOE/Ty6pJjvj749zKR0eoL/Xz1kVNabQ99HNyE47KTDdfuh2ONNx4OHR31vc91X4EtHpaT3dQC sDI269r2XWppaugqHVEDIagxhrxAzdc5o4P3iN3DsjhwGSmrLnPUSXeoiqK5lbbbZFJMzso6lipZ Xsc4FjGNzI/o+VwOQM96fp86saf+8e5nlP8Anmq/Alo9LS+7pz3VfgSz+lpPd1FLcajVGpcT3Osb RyWOlndFSVLo2uke5/bhzSCMY6jx4Zzhc/Tlzq9QN0xT3W4VLIHWmSqL46l0JnmZI1gLnNILt1vH BOCTk9Cz+n83t28/f2MphQ3zUVxp3T0totD42yyQk9lJR2zHFjhxpupzSFxpNo08M0sL6az78T3R vDbhUHdc04IyKXHAgro7N3iXRkb+XNRvVdWeWOMyZnk7bhw49PBc3TUuqW0FYLbQ2iWk7JVu4+pq pGSH+USZyBG4dOevoT8vp6dWqap4uPOPczUiZX6pe1r22W0EOAIPZWXo/LrjGtv9ZrJjmW60c6t9 E9ksHZKX5M72Frt7m+P/ALgjHHp6uuPa3uM3O9RVtFVVomtcMTC43R1NFTSlpcOTia3+MccjO/wd nAPBbkMdJe9ZXaWous1NG+0UlQHUtSYg7/eHlN5pBIbnOM448cren8NjTvs9Pb+qZ74THnmrPAlo 9LS+7rVpLvqWupm1EdjtrWPJaBLcZ43cCQctdTAjiO9xHHoUY07LcdQ3XT01xuFaxosrKuSKKd0b ZpeUAa5waRkEcSOg5GeHBaWn6qpu9JYaC63Wthop47jM6RtY6J80kdQWtaXgh2GscTjOOAyMNWb0 JJfHb/fYyn3PNV+BLP6Wl93X3nmq/Aln9LS+7rNpwxPsdIae6yXWBoLWVkjmudKA4jiWgA4xjPXj jk8V2F5bZLjDTgc81X4Es/paX3dOear8CWf0rL7upAibpxDCP881X4Es/pWX3dOear8CWf0rL7up AibpxDCP881X4Es/pWX3dOear8CWf0rL7upAibpxDCP881X4Es/pWX3dOear8CWf0rL7upAibpxD CP8APNV+BLP6Vl93Tnmq/Aln9Ky+7qQIm6cQwj/PNV+BLP6Vl93Tnmq/Aln9Ky+7qQIm6cQwj/PN V+BLP6Vl93Tnmq/Aln9Ky+7qQIm6cQwj/PNV+BLP6Vl93Tnmq/Alo9LS+7qQIm6cQwhtmp9V2igd TdirPNmonn3uycrf95K+TGObno38Z68Z4dC6XPNV+BLR6Wl93XfRLrzbbDDgc81X4Es/pWX3dOea r8CWf0rL7upAibpxDCP881X4Es/pWX3dOear8CWf0rL7upAibpxDCP8APNV+BLP6Vl93Tnmq/Aln 9Ky+7qQIm6cQwj/PNV+BLP6Vl93Tnmq/Aln9Ky+7qQIm6cQwj/PNV+BLP6Vl93Tnmq/Aln9Ky+7q QIm6cQwj/PNV+BLP6Vl93Tnmq/Aln9Ky+7qQIm6cQwj/ADzVfgSz+lZfd055qvwJaPSsvu6kCJun BhH4qvVBlYJbRaWxlwDnNucjiB1kDm4yfFkLvovqzbn0wCIiAiIgIiICIiAiIgIiICIiAiIgIiIC IiAiIgIiICIiAiIgIiICIiAiIgIiICIiAiIgIiICIiAiIgIiICIiAiIgIiICIiAiIgIiICIiAiIg IiICIiAiIgIiICIiAiIg1qqlp62lkpqqGOaCVu6+ORoc1w7xB6VnAAGAMBfV9TN8Dg0mj9OUVSyp pbDbYZozvMkZSsDmnvg4yCumKOlFca0U8YqjGIjNujfLASQ3PTjJJx41tr4rdVvmphqR0VLDVzVb KeJlTOGtllawBzw35IJ6TjJwta4WC0XaojnuFro6uaLhHJPA17mjpwCRw4rqr4pLZcyq0K60W660 7YLhQ01XC1wc2OeJr2gjoIBC+1FroKuh5jU0VPNR4A5CSJro8DoG6Rjgt5fU3auRyrbp6z2flOxt ro6QyDDzBA1hcO8SBxXmDTtmpZmz09poopmxci2SOBrXCPGN0EDIGOpddFd+rlMOVU2K1VltitlT bqWaihDWx08kTXMYAMDAPRgcAtm326jtlIyloaWGmp2Z3YoWBjRk5PAcOlbaKbtVmLeytBtpt7XO IoacF1RzlxEY4zYxyn+LAHHpXmezWypdUunoKeU1PJ8uXxA8ruHLN7v7p4jPQukibrPUc59ntss0 sslFA6SaRksjjGCXvZjcce+W4GD1YXqa2UNU+Yz0sMhmY1kpfGDvtaSWg98AkkfaVvoruvI5M2nb NUVAqJrVRSTCXluUfA1zt/AG9kjpwBx8Q7y9vstsluLbjJbqV9cG7gqHQtMgb0Y3sZxj/NdJE36u RzqKz2y2Y5hQU1KAzkxyMQZhu8XbvAdG85xx3ye+sUmnbLNR09JJaaJ9NSu3oInQNLYjnOWjHD8F 1kTdqznJhrUtLBSRclTwsijLnP3WNDRvOJLjgdZJJPjKU1PBSxmOnhbEwvc8tY0AFziXOPDrJJJ8 ZW0ilto5j7HapK99wfbaR1bIzcfUGFpe5uMYLsZIxw+xa50rp91OIXWW3uhAaAw0zC3DSS3hjq3n Y/xHvrtIrNeqetMNZtFSsqBUNp4mzCPkhIGAODM53c97PUtKXT1nqLc23TWujfRtcXNgdC0sBJJJ AxgEkk/iusvqm68jXgp4aWnjgp4mRQxtDWRxtDWtA6AAOAC2ERAREQEREBERAREQEREBERAREQER EBERAREQEREBERAREQEREBERAREQEREBERAREQEREBERAREQEREBERAREQEREBERAREQEREBERAR EQEREBERAREQEREBERAREQEREBERAREQEREBERAREQEREBERAREQEREBERAREQEREBERAREQEREB ERAREQEREBERAREQEREBERAREQEREBERAREQEREBERAREQEREBERAREQEREBERAREQEREBERAREQ EREBERAREQEREBERAREQEREBERAREQEREBERAREQEREBERAREQEREBERAREQEREBERAREQEREBER AREQEREBERAREQEREBERAREQEREBERAREQEREBERAREQEREBERAREQEREBERAREQEREBERAREQER EBERAREQEREBERAREQEREBERAREQEREBERAREQEREBERAREQEREBERAREQEREBERAREQEREBERAR EQEREBERAREQEREBERAREQEREBERAREQEREBERAREQEREBERAREQEREBERAREQEREBERAREQEREB ERAREQEREBERAREQEREBERAREQEREBERAREQEREBERAREQEREBERAREQEREBERAREQEREBERAREQ EREBERAREQEREBERAREQEREBERAREQEREBERAREQEREBERAREQEREBERAREQEREBERAREQEREBER AREQEREBERAREQEREBERAREQEREBERAREQEREBERAREQEREBERAREQEREBERAREQEREBERAREQER EBERAREQEREBERAREQEREBERAREQEREBERAREQEREBERAREQEREBERAREQEREBERAREQEREBERAR EQEREBERAREQEREBERAREQEREBERAREQEREBERAREQEREBERAREQEREBERAREQEREBERAREQEREB ERAREQEREBERAREQEREBERAREQEREBERAREQEREBERAREQEREBERAREQEREH/9k= "
       id="image12" />
    <rect
       style="fill:none;fill-opacity:1;stroke:#ff0000;stroke-width:2;stroke-miterlimit:4;stroke-dasharray:none;stroke-dashoffset:2.83465;stroke-opacity:1"
       id="rect837"
       width="143.73781"
       height="89.201965"
       x="493.51935"
       y="196.9751" />
  </g>
</svg>
